TestCfg,EncodeMethod,CodecName,EncodePreset,Class,Name,OrigRes,FPS,BitDepth,CodedRes,QP,Bitrate(kbps),PSNR_Y,PSNR_U,PSNR_V,SSIM_Y(dB),MS-SSIM_Y(dB),VMAF_Y,VMAF_Y-NEG,PSNR-HVS,CIEDE2000,APSNR_Y,APSNR_U,APSNR_V,CAMBI,EncT[s],DecT[s],EncInstr,DecInstr,EncCycles,DecCycles,EncMD5,DecMD5
AS,aom,av2,0,A1,BoxingPractice,3840x2160,60.0000,10,3840x2160,110,21807.152847,42.354483,48.626104,48.513410,29.179856,20.293621,99.975544,99.895154,42.955178,43.202305,42.296523,48.595500,48.484501,1.146416,43141.06,22.68,279767793787085,89447127556,113249642198111,62430081471,c1e1a6b7d86d47ba30a9fbf41924558b,
AS,aom,av2,0,A1,BoxingPractice,3840x2160,60.0000,10,3840x2160,135,8217.819104,41.494488,47.353555,47.101822,27.357557,19.513109,99.374886,97.450318,41.376415,42.288184,41.475567,47.337542,47.083249,1.233459,38702.30,17.04,253589390471049,71423856683,101634052589739,46966015934,f71d1979491f68c057188341925cbd87,
AS,aom,av2,0,A1,BoxingPractice,3840x2160,60.0000,10,3840x2160,160,3418.999462,40.178995,45.732846,45.294398,24.969257,18.391072,94.140555,92.000146,39.004978,41.079575,40.161314,45.715587,45.276468,1.268999,23004.62,12.34,154422647441433,55587046440,61072662633061,34100162153,d584f730f5de8d2b2120aab2e4789f51,
AS,aom,av2,0,A1,BoxingPractice,3840x2160,60.0000,10,3840x2160,185,1678.838085,38.097844,43.643249,42.968050,21.736372,16.624858,84.336759,81.983297,35.702473,39.356569,38.070563,43.624069,42.950000,1.365918,11857.22,10.06,101263382833127,41369273722,41474367740631,36357375492,78882595af1ac8c481423a11daf2c7a3,
AS,aom,av2,0,A1,BoxingPractice,3840x2160,60.0000,10,3840x2160,210,811.658495,35.247881,41.291968,40.555798,17.981069,14.282077,67.945027,65.470142,31.890183,37.121150,35.212430,41.274348,40.543276,1.412120,9621.23,9.18,63553947582278,35289275303,25766068251519,25545667119,32a24f0cae95783d7c6444b25ab21cd9,
AS,aom,av2,0,A1,BoxingPractice,3840x2160,60.0000,10,3840x2160,235,395.294552,32.002278,38.694607,38.254942,14.254603,11.751039,46.266413,44.062467,28.084286,34.490884,31.962375,38.682141,38.242792,1.322165,4700.29,8.12,38239145292594,37355536785,16524965573629,29471965398,c9864b739780917872d7aaed315bba8d,
AS,aom,av2,0,A1,BoxingPractice,3840x2160,60.0000,10,2560x1440,110,11015.765773,41.536551,47.008927,47.019638,28.210180,19.832357,99.946871,98.186063,42.040822,42.377935,41.519947,46.996072,47.003481,1.278525,16817.12,8.98,107667939565417,41494262613,44333539064327,24430931154,132af49bb623d1aceb724ef7ac3994d9,
AS,aom,av2,0,A1,BoxingPractice,3840x2160,60.0000,10,2560x1440,135,4678.906324,40.616190,45.925058,45.710386,26.212242,18.948060,97.073460,94.486717,40.145967,41.491454,40.603337,45.913439,45.695327,1.263887,16376.72,7.54,106905962839264,35126236879,43170283055414,20701367354,9c2f0aa8b51da4b101f25c0926496cda,
AS,aom,av2,0,A1,BoxingPractice,3840x2160,60.0000,10,2560x1440,160,2232.437101,39.015305,44.383469,43.944172,23.352381,17.512753,89.677509,86.995251,37.286622,40.150726,38.994625,44.369919,43.928834,1.357334,10743.64,6.30,72987535420053,28131857740,28507607653786,17358939573,261268ce90775072af4f996064b03a35,
AS,aom,av2,0,A1,BoxingPractice,3840x2160,60.0000,10,2560x1440,185,1103.262276,36.632816,42.402537,41.677932,19.840011,15.463504,76.449276,73.859190,33.736947,38.284530,36.601822,42.386414,41.662693,1.419048,7256.63,4.17,52881042591826,19655984817,20868300433241,12161451479,28dca9251e9e563476ea2ffde2fde93c,
AS,aom,av2,0,A1,BoxingPractice,3840x2160,60.0000,10,2560x1440,210,525.631907,33.598569,40.143501,39.441764,16.029583,12.972053,57.221456,54.792468,29.915442,35.988294,33.561289,40.128297,39.431788,1.345788,5259.74,3.68,36166032089632,16226150887,14059068649134,10130812368,bb1c38465587023c645054fb57fc4574,
AS,aom,av2,0,A1,BoxingPractice,3840x2160,60.0000,10,2560x1440,235,249.033428,30.363461,37.841159,37.437892,12.458774,10.517143,35.061128,33.040068,26.306832,33.398825,30.326628,37.831500,37.429431,1.458767,3265.91,3.80,21839008021708,16340989215,8737842019382,10593615796,6ad97818b28ec5880bc28697120d505f,
AS,aom,av2,0,A1,BoxingPractice,3840x2160,60.0000,10,1920x1080,110,7371.325290,40.611440,45.868646,45.665388,27.441044,19.346835,97.997081,95.423818,41.024124,41.686072,40.601961,45.860923,45.653377,1.334799,8876.13,5.62,56604982150119,25869756933,23368547177635,15153382459,7e98a7ec3b5d30df5f69271aca203f22,
AS,aom,av2,0,A1,BoxingPractice,3840x2160,60.0000,10,1920x1080,135,3388.560977,39.634991,44.903556,44.498207,25.194601,18.350035,93.636550,90.787296,38.905695,40.794920,39.622178,44.894233,44.484025,1.398712,9131.06,4.73,59874232844814,21569351190,24004266987841,12799194320,8a75a925d4261492fb34202ef865bfa5,
AS,aom,av2,0,A1,BoxingPractice,3840x2160,60.0000,10,1920x1080,160,1657.923615,37.904478,43.395595,42.840194,22.025678,16.699915,84.341257,81.487737,35.806860,39.348045,37.882979,43.382745,42.825067,1.459474,6567.47,4.12,43995263705493,16727347640,17371014783556,11295501397,ba8b4e7b39e4b877a79749171bc01f11,
AS,aom,av2,0,A1,BoxingPractice,3840x2160,60.0000,10,1920x1080,185,816.431568,35.441966,41.488654,40.768518,18.413917,14.526798,69.262355,66.542241,32.248491,37.412461,35.410438,41.472734,40.754661,1.475584,4876.56,2.62,33441924222920,11628897270,12971370276820,7064441767,f4fdefb4cbdeb5a43e1febcd5206fec5,
AS,aom,av2,0,A1,BoxingPractice,3840x2160,60.0000,10,1920x1080,210,385.054945,32.403778,39.259721,38.724640,14.679349,12.053879,48.935246,46.573112,28.550636,35.094719,32.368188,39.241949,38.715242,1.453706,3593.92,2.41,24671862980206,9163262196,9619292990416,6616870444,4dbdb206bd9056b31e82ce9663c4f281,
AS,aom,av2,0,A1,BoxingPractice,3840x2160,60.0000,10,1920x1080,235,176.061477,29.170950,37.046154,36.763059,11.190352,9.633667,26.233751,24.540576,25.051813,32.492702,29.133762,37.035944,36.756510,1.231678,2104.95,1.84,15116589626459,8124081465,6045275711303,5414411677,b03eaae4106ad9169ba7c04bddd07bf1,
AS,aom,av2,0,A1,BoxingPractice,3840x2160,60.0000,10,1280x720,110,4340.029202,38.343616,44.446922,43.790847,25.906551,18.054024,90.268787,87.613080,37.493514,40.394889,38.338131,44.441403,43.780866,1.379557,5349.39,2.64,33073199830178,12983805873,14044543414013,7052792209,f47c890d7bd3edade2866d9d10058cd6,
AS,aom,av2,0,A1,BoxingPractice,3840x2160,60.0000,10,1280x720,135,2177.627911,37.456942,43.546374,42.800973,23.377260,16.971589,84.138893,81.309979,35.720290,39.490108,37.446164,43.538983,42.789207,1.463972,4422.18,2.27,28565587895249,10790948548,11637155632913,6134723614,f1764b577e2e77fb416766581ec1cb7c,
AS,aom,av2,0,A1,BoxingPractice,3840x2160,60.0000,10,1280x720,160,1078.987474,35.848253,42.098377,41.319565,20.004569,15.247014,72.299332,69.504859,33.059307,38.029838,35.828999,42.087014,41.306512,1.513172,3355.50,1.62,22050194036422,7954993895,8859825721678,4406814948,b0c6790a594488f04562301afb23a0fe,
AS,aom,av2,0,A1,BoxingPractice,3840x2160,60.0000,10,1280x720,185,525.676170,33.516065,40.273927,39.557622,16.375707,13.083619,54.784515,52.361392,29.913562,36.117502,33.485955,40.260694,39.547112,1.523725,1998.60,1.00,17384492015739,5587688348,6917697766803,3550542883,c5bdfd9cd69a8fa7dc48bf21fe1697a9,
AS,aom,av2,0,A1,BoxingPractice,3840x2160,60.0000,10,1280x720,210,245.470222,30.620165,38.077515,37.747438,12.825546,10.748309,34.416863,32.449580,26.580548,33.752268,30.586741,38.063610,37.739013,1.491616,1547.89,0.80,13589968323857,4294789675,5379465460628,2875541838,ef6a371585c7e2b569995582c28af280,
AS,aom,av2,0,A1,BoxingPractice,3840x2160,60.0000,10,1280x720,235,110.555291,27.575274,36.214902,35.933388,9.643970,8.547669,14.523408,13.382141,23.443304,31.236344,27.542262,36.204290,35.927210,1.301953,1323.57,0.58,9060601200242,3221624723,3532495305249,1607175568,9df567c5ff27f4b28940d86dddba0643,
AS,aom,av2,0,A1,BoxingPractice,3840x2160,60.0000,10,960x540,110,3127.746100,36.234534,43.404120,42.516962,24.822427,16.463441,79.082253,76.388302,33.759513,39.213431,36.230404,43.399311,42.508050,1.442573,4279.51,1.67,26418222611348,8220500233,11216381508967,4449764874,06968fe0724e7151006b979976a829ee,
AS,aom,av2,0,A1,BoxingPractice,3840x2160,60.0000,10,960x540,135,1610.406824,35.528777,42.560092,41.677629,22.051144,15.512141,72.026023,69.249607,32.634332,38.365914,35.520735,42.553483,41.667191,1.497884,2943.27,1.35,18334556457640,6793198194,7731721711039,3634964583,94396e9f08cfeba2817bd7c93da48391,
AS,aom,av2,0,A1,BoxingPractice,3840x2160,60.0000,10,960x540,160,797.520018,34.179704,41.189985,40.375642,18.614373,13.991321,59.393423,56.763229,30.731358,36.983917,34.163230,41.179251,40.362871,1.545255,2076.04,0.98,13311527037541,4976985675,5470384785623,2623685695,1b93d313f4bbce3044e8d25d760166c8,
AS,aom,av2,0,A1,BoxingPractice,3840x2160,60.0000,10,960x540,185,391.089526,32.107806,39.419222,38.728852,15.060126,12.027799,42.210446,40.007999,28.188566,35.121662,32.081291,39.404651,38.719267,1.551397,1582.30,0.65,10281878973002,3535386082,4183910876303,1776098312,982fd71441fc490d36f39ad9aa4964db,
AS,aom,av2,0,A1,BoxingPractice,3840x2160,60.0000,10,960x540,210,183.423961,29.436393,37.439576,37.060380,11.625529,9.878075,23.781266,22.282346,25.303103,32.863723,29.403229,37.427459,37.051474,1.568326,1195.23,0.45,7880236392601,2709510972,3170274401541,1264098097,d8e7816ab670609d86a7048c84713d48,
AS,aom,av2,0,A1,BoxingPractice,3840x2160,60.0000,10,960x540,235,84.189042,26.527202,35.661329,35.392049,8.651775,7.856502,6.604807,5.801160,22.416714,30.406426,26.494392,35.651061,35.383927,1.329047,845.83,0.37,5533408368286,1956566648,2255331604346,1015458120,f903b4a34268f01a2f646e9a002dceef,
AS,aom,av2,0,A1,BoxingPractice,3840x2160,60.0000,10,640x360,110,1845.641128,33.229027,41.951181,41.021874,21.518357,13.842786,53.159390,50.966917,29.236386,37.303174,33.226078,41.946375,41.014159,1.473141,1955.75,0.76,12013676949017,4068126941,5125842316190,2038562931,c88871d01db5eda9b27351f758e38b7c,
AS,aom,av2,0,A1,BoxingPractice,3840x2160,60.0000,10,640x360,135,975.186045,32.734022,41.195994,40.303580,19.129350,13.153609,46.163168,44.036907,28.659028,36.578776,32.728498,41.189404,40.294824,1.537489,1403.53,0.62,8742650088963,3224275413,3683555737598,1653420435,2c6282ca1dd45207e35407d85e4d5181,
AS,aom,av2,0,A1,BoxingPractice,3840x2160,60.0000,10,640x360,160,489.180973,31.712923,39.909359,39.131749,16.085629,11.991838,35.048606,33.127443,27.533541,35.334612,31.700775,39.900059,39.121674,1.562994,1021.97,0.43,6469442881167,2328736496,2687931334762,1155168520,714084272873551d1597f60824d41ea0,
AS,aom,av2,0,A1,BoxingPractice,3840x2160,60.0000,10,640x360,185,243.039422,30.024235,38.273330,37.678319,12.924448,10.428398,21.062057,19.702895,25.781421,33.603134,30.002015,38.262433,37.668971,1.580763,752.42,0.30,4915179763684,1717133177,1983949745118,814044315,73def09a576c00da18ddc4accf9f4eb1,
AS,aom,av2,0,A1,BoxingPractice,3840x2160,60.0000,10,640x360,210,115.003765,27.667963,36.584228,36.119567,9.866960,8.619498,7.826082,7.098258,23.483058,31.438436,27.637893,36.574813,36.109372,1.582299,417.38,0.16,3595461646520,1119611191,1446422812217,577172042,1fac0a4981f3fa8862a4290c98103270,
AS,aom,av2,0,A1,BoxingPractice,3840x2160,60.0000,10,640x360,235,54.672712,24.994524,34.853390,34.705126,7.309195,6.916062,0.026833,0.011549,20.979786,28.973585,24.960715,34.846980,34.699084,1.400506,373.41,0.13,2552221176546,757637468,997676077219,367633235,7e0cb52f6d412f78ea13fcbdb315625d,
AS,aom,av2,0,A1,Crosswalk,3840x2160,60.0000,10,3840x2160,110,20601.918697,42.757442,48.671170,52.094750,28.275875,20.010790,95.109052,93.351519,43.058004,43.624657,42.706876,48.651418,52.080616,0.317180,38149.83,22.06,245730584260066,94393672612,99658477517761,61132538046,2571b0b73f6255b43290bd3e906b51b8,
AS,aom,av2,0,A1,Crosswalk,3840x2160,60.0000,10,3840x2160,135,6844.900330,42.036906,47.905052,51.033039,25.595641,19.070938,89.765130,87.897872,41.392214,42.904299,42.024204,47.896690,51.021543,0.310735,33954.55,18.08,219718319703807,78704611241,88767590263597,50447690540,c7b43d715b0624189250df2673d8c0a8,
AS,aom,av2,0,A1,Crosswalk,3840x2160,60.0000,10,3840x2160,160,2810.738800,40.909966,46.750059,49.450332,22.313725,17.746226,80.077245,78.191101,39.141405,41.833089,40.884852,46.738777,49.429818,0.280697,18199.54,13.50,121298179448053,58570698908,47806952796592,37579323497,3d05f63bc0316c0d8ccbbf3ebdf242e4,
AS,aom,av2,0,A1,Crosswalk,3840x2160,60.0000,10,3840x2160,185,1342.708983,39.177908,45.098332,47.325007,18.707631,15.967974,65.304174,63.379330,36.419671,40.249375,39.128868,45.079421,47.292751,0.294958,11105.09,10.99,73220723934607,47163695417,29471324035915,30391069210,85ebd7ef9c6ebc5c70bc7e6158086643,
AS,aom,av2,0,A1,Crosswalk,3840x2160,60.0000,10,3840x2160,210,648.732191,36.760421,42.966434,44.650264,15.121434,13.834517,46.044788,44.217083,33.348740,38.081478,36.686989,42.943913,44.613003,0.361806,7232.86,9.56,46730487718054,39855449236,19367468009722,26453353343,167659d5ccd2030983463b01a74403cc,
AS,aom,av2,0,A1,Crosswalk,3840x2160,60.0000,10,3840x2160,235,330.865442,33.839497,40.479514,41.887188,11.721428,11.524234,27.109678,25.667654,30.148028,35.425158,33.749027,40.451106,41.843275,0.485745,4953.38,11.58,31830570985560,39409449177,13469674726162,32164217338,56a97f15da7082459e9dd9fcefe60b84,
AS,aom,av2,0,A1,Crosswalk,3840x2160,60.0000,10,2560x1440,110,9882.883885,42.360547,48.262602,51.578884,26.873146,19.509316,92.769030,90.786885,42.172976,43.237364,42.347725,48.251917,51.568080,0.345780,15405.77,9.49,97306429779527,43160682701,40333980119357,26066447018,e860e99f080a4ef3e29e870f682dd6fd,
AS,aom,av2,0,A1,Crosswalk,3840x2160,60.0000,10,2560x1440,135,3839.398755,41.508565,47.403972,50.384843,23.974528,18.439685,85.821937,83.688949,40.278941,42.422025,41.492937,47.394956,50.370124,0.351764,14051.15,8.49,90621649750054,37058963306,36785628690224,23650535445,6510c18a5e4858172ec197adde3b8234,
AS,aom,av2,0,A1,Crosswalk,3840x2160,60.0000,10,2560x1440,160,1775.955737,40.099925,46.092939,48.587053,20.485894,16.898489,73.702125,71.611064,37.799291,41.145275,40.064654,46.079751,48.561453,0.342846,8277.61,6.46,54800693581946,27643647403,21780485472485,17875414622,4c228ef7e0dab0063209c091e7982b18,
AS,aom,av2,0,A1,Crosswalk,3840x2160,60.0000,10,2560x1440,185,845.796665,38.057592,44.280823,46.324610,16.910638,14.961277,56.234007,54.331697,34.943669,39.338701,37.995875,44.259090,46.285581,0.359154,5262.00,4.48,35395175125360,22232482342,13902973517113,12256723336,5c63e09539549896d69e89ec42a049d0,
AS,aom,av2,0,A1,Crosswalk,3840x2160,60.0000,10,2560x1440,210,402.900484,35.395198,42.173139,43.651036,13.432186,12.756132,35.595705,34.023346,31.837967,37.036244,35.311022,42.150533,43.604854,0.415191,3432.72,3.88,23931647419250,18630943095,9819136473414,11506749247,2a4d9d69c5eba100b7627d52f2c22fd9,
AS,aom,av2,0,A1,Crosswalk,3840x2160,60.0000,10,2560x1440,235,202.044110,32.384335,39.531800,40.648115,10.325963,10.538444,16.961704,15.907943,28.679440,34.186882,32.294264,39.504952,40.595356,0.557941,1969.18,3.60,16483729674197,18054792171,6916889506385,13085429450,83cdc35bbc7f58d9d7c0e5c55375d854,
AS,aom,av2,0,A1,Crosswalk,3840x2160,60.0000,10,1920x1080,110,6342.499347,42.039995,47.921278,51.143352,25.772011,19.101015,90.467369,88.285775,41.432422,42.927486,42.029601,47.912634,51.131152,0.387959,8631.65,5.67,54332380763197,25470666202,22614001099222,15490923263,54d300c98a6a248b38aafee6815da1c9,
AS,aom,av2,0,A1,Crosswalk,3840x2160,60.0000,10,1920x1080,135,2773.845232,41.035932,46.960959,49.801303,22.701920,17.909669,82.043971,79.784458,39.380343,41.998931,41.014707,46.950313,49.782631,0.415257,8161.38,4.81,52142335928871,22238075066,21357780325020,13269575206,984b2d67718a0e614e0c61c371c177f0,
AS,aom,av2,0,A1,Crosswalk,3840x2160,60.0000,10,1920x1080,160,1295.203258,39.415580,45.530228,47.882701,19.168100,16.232167,68.281189,66.072998,36.776327,40.572933,39.371897,45.514784,47.851878,0.432590,5006.39,3.33,33489816631077,16107900938,13140781715381,9130537411,28485f5e98df3f46d2f50af57b29dc79,
AS,aom,av2,0,A1,Crosswalk,3840x2160,60.0000,10,1920x1080,185,615.837086,37.174467,43.681274,45.611772,15.655847,14.214546,49.491705,47.631061,33.870773,38.646925,37.104772,43.657914,45.567293,0.462008,3384.09,2.65,22825777274675,12860044636,8928339200350,7274314752,0318e26fd5ed3a50b22d38ccf9ad5bf0,
AS,aom,av2,0,A1,Crosswalk,3840x2160,60.0000,10,1920x1080,210,288.018443,34.362026,41.424768,42.825084,12.290115,11.991152,28.616235,27.256750,30.739940,36.186193,34.274215,41.399556,42.770071,0.527561,2370.42,2.22,15814247257251,10583758613,6273256370883,6019693998,0d42b69b3f379819270c33422fa8ab09,
AS,aom,av2,0,A1,Crosswalk,3840x2160,60.0000,10,1920x1080,235,141.897487,31.359902,38.922681,40.030765,9.426594,9.892337,11.254503,10.493605,27.677946,33.368482,31.267042,38.895558,39.967000,0.621391,1564.88,2.14,10417298505919,9889978595,4178594776724,5854538003,44d59ef6e39348789df2bd0373ba1b09,
AS,aom,av2,0,A1,Crosswalk,3840x2160,60.0000,10,1280x720,110,3674.716668,41.431649,47.316136,50.382187,24.071199,18.397676,85.325187,82.956287,40.160877,42.385817,41.417822,47.306194,50.365564,0.426245,5254.42,2.31,32744715763955,12880439296,13731845327862,6261908261,2f6da9ec3ad1f02e5d4e8a2ab905fea8,
AS,aom,av2,0,A1,Crosswalk,3840x2160,60.0000,10,1280x720,135,1762.949666,40.191485,46.247476,48.888400,20.842650,17.030884,74.782057,72.360641,37.949528,41.289916,40.160924,46.234793,48.866787,0.459520,4042.58,2.04,26034962500477,11143327991,10577810573943,5554807481,d91c40391fde05fe80d629ca023e315e,
AS,aom,av2,0,A1,Crosswalk,3840x2160,60.0000,10,1280x720,160,831.174979,38.267842,44.666806,46.774999,17.276939,15.187085,58.384293,56.205007,35.223567,39.626267,38.212629,44.649518,46.737165,0.501962,2636.31,1.51,18108121012907,7976357368,7439644205155,4392270674,3deb07164a9cb891aa821924e609244c,
AS,aom,av2,0,A1,Crosswalk,3840x2160,60.0000,10,1280x720,185,393.358027,35.750136,42.693518,44.317960,13.847514,13.066641,38.026550,36.421944,32.248692,37.476608,35.668599,42.667041,44.267861,0.563701,1836.56,1.07,12958349750731,6079416859,5200963796713,3162407277,7e99069041c32452101d84719fe113c6,
AS,aom,av2,0,A1,Crosswalk,3840x2160,60.0000,10,1280x720,210,181.981711,32.783603,40.371568,41.619978,10.740778,10.889010,18.078531,17.104256,29.125011,34.845762,32.691344,40.346572,41.570116,0.645423,1410.30,0.91,9325565683345,4907596789,3718936297885,2459993854,348c6aacf86909e3a3ebbe02d9032fe1,
AS,aom,av2,0,A1,Crosswalk,3840x2160,60.0000,10,1280x720,235,87.608392,29.727005,37.860635,38.689611,8.186323,8.943687,3.688837,3.351760,26.087287,31.972423,29.634063,37.836749,38.633833,0.795602,910.09,0.73,6033589109540,4429913487,2412856618432,1992679403,bfeebc546b650867779141e3047daedd,
AS,aom,av2,0,A1,Crosswalk,3840x2160,60.0000,10,960x540,110,2678.332129,40.831773,46.834951,49.771435,22.804747,17.764289,79.308731,76.848200,39.010846,41.922943,40.812272,46.822452,49.751389,0.461052,4115.61,1.58,25190804987709,8108810238,10750512105623,4252924938,95f10bfb4790a70e77c1bc43929cdccb,
AS,aom,av2,0,A1,Crosswalk,3840x2160,60.0000,10,960x540,135,1324.347038,39.482795,45.690636,48.192096,19.560004,16.339119,67.772196,65.302110,36.851306,40.736347,39.446187,45.675130,48.167435,0.510777,2712.37,1.25,17024897967481,6867864769,7088724366419,3405621422,353c1379c5f5439ba7436da9d8375917,
AS,aom,av2,0,A1,Crosswalk,3840x2160,60.0000,10,960x540,160,623.277031,37.390878,43.999388,45.972550,16.025510,14.428696,50.407543,48.242207,34.122285,38.909932,37.330744,43.978894,45.934129,0.574776,1863.28,0.89,11766070239573,4989605886,4879621356688,2425406269,2e12f35946397ac1e48000b00cbeddc2,
AS,aom,av2,0,A1,Crosswalk,3840x2160,60.0000,10,960x540,185,297.383847,34.793173,42.022264,43.543994,12.771697,12.345237,30.428894,28.993472,31.211990,36.660443,34.712209,41.997149,43.490802,0.664301,1326.93,0.66,8318480337574,3702496901,3485140811077,1815514151,003493b0ff631c01f017830a6e55d88c,
AS,aom,av2,0,A1,Crosswalk,3840x2160,60.0000,10,960x540,210,138.821179,31.811892,39.811490,40.892983,9.828620,10.228521,12.379100,11.655281,28.161656,34.015806,31.722600,39.783507,40.837191,0.775159,942.05,0.52,5912016142332,2916763493,2480459290612,1397254230,6c4718414eb20b52a46001f62f3e16b1,
AS,aom,av2,0,A1,Crosswalk,3840x2160,60.0000,10,960x540,235,67.383693,28.800809,37.282292,38.043655,7.530691,8.431659,1.877293,1.711457,25.195347,31.200539,28.718053,37.249473,37.982160,0.940842,613.24,0.40,3875665364807,2513198356,1617701276589,1028716784,20bf73246623effca42192ee591ec5f4,
AS,aom,av2,0,A1,Crosswalk,3840x2160,60.0000,10,640x360,110,1649.738569,39.550172,45.990548,48.698782,20.636154,16.552602,64.067272,61.780959,36.819025,41.039126,39.515560,45.973753,48.672260,0.485231,2124.74,0.80,13076417060696,4262846831,5552457340441,2120866728,3d3165edd212bb637ab7d3f631b65aae,
AS,aom,av2,0,A1,Crosswalk,3840x2160,60.0000,10,640x360,135,832.698379,38.115270,44.736475,46.989591,17.521916,15.135684,51.822193,49.542922,34.928342,39.700643,38.066936,44.717641,46.961291,0.554012,1137.96,0.50,9202444660253,3432021850,3884814401092,1722393253,d5d5c8b8f9f1494857aaa2f16d12cb9c,
AS,aom,av2,0,A1,Crosswalk,3840x2160,60.0000,10,640x360,160,397.474525,35.876796,43.002873,44.705383,14.172697,13.217007,34.161907,32.430486,32.353025,37.718753,35.806891,42.982512,44.660953,0.669775,983.87,0.48,6323763032454,2552332739,2572097184231,1281325777,91387bbbcb52aee751394c64edb56e48,
AS,aom,av2,0,A1,Crosswalk,3840x2160,60.0000,10,640x360,185,190.369630,33.169374,40.948643,42.166784,11.141804,11.186568,16.958485,15.989355,29.524996,35.293281,33.082733,40.923132,42.120260,0.798191,661.18,0.34,4295456774537,1871665029,1735081129531,912511580,b43df19167e5eb1c0e5fe3c981c13781,
AS,aom,av2,0,A1,Crosswalk,3840x2160,60.0000,10,640x360,210,88.829325,30.153377,38.506528,39.446238,8.516434,9.225688,3.534069,3.238803,26.529978,32.501390,30.064874,38.453062,39.365146,0.964955,442.86,0.22,2917849198562,1356458162,1164653107495,586611331,97eca71a87b4966f55a2144924216602,
AS,aom,av2,0,A1,Crosswalk,3840x2160,60.0000,10,640x360,235,44.654423,27.226664,36.261887,36.631506,6.611658,7.676005,0.077123,0.070026,23.676087,29.831471,27.151329,36.217831,36.538590,1.058380,297.95,0.17,1946241509586,1011403271,786152657358,453828545,89307da4b011083356787e3c9fec3ef2,
AS,aom,av2,0,A1,FoodMarket2,3840x2160,60.0000,10,3840x2160,110,29492.235764,43.060917,48.782065,48.989676,32.124180,22.741917,99.971104,99.963216,44.510287,44.010115,42.962685,48.694833,48.894926,0.016574,35851.49,22.00,241822768776971,99294884408,101537397011864,64454993883,5d156d04895b3602ca786f0e455cfdea,
AS,aom,av2,0,A1,FoodMarket2,3840x2160,60.0000,10,3840x2160,135,13129.746561,41.551155,46.803832,47.029461,28.860128,20.843319,99.958060,99.946962,41.293459,42.408424,41.485835,46.729242,46.937341,0.016766,39649.70,20.83,256531093198257,86890910082,104371071654404,57425604377,446545328b10f102a1cc05d2f02660ef,
AS,aom,av2,0,A1,FoodMarket2,3840x2160,60.0000,10,3840x2160,160,6128.939368,39.145177,44.397131,44.623773,24.537400,18.077670,96.956428,95.039339,37.139867,40.140638,39.073795,44.323869,44.525826,0.018248,28083.44,17.45,182008499127141,72837681058,74291786502057,48407413084,880dad5cefa483007601e52982b75406,
AS,aom,av2,0,A1,FoodMarket2,3840x2160,60.0000,10,3840x2160,185,2888.103896,36.098164,41.770252,41.958045,19.877310,14.879505,80.400838,78.653461,32.851456,37.402906,36.015986,41.695039,41.857688,0.018906,19198.48,12.20,126998782355523,52779561098,50874204170818,33515684376,a05dd7f12a894393e6bd78653c478fb4,
AS,aom,av2,0,A1,FoodMarket2,3840x2160,60.0000,10,3840x2160,210,1310.865135,32.729383,39.073729,39.213481,15.276679,11.618486,56.085563,54.885709,28.760486,34.405371,32.643767,39.001224,39.113880,0.032341,12958.96,10.39,84716054121644,44067101425,34187479481890,28434559358,d8256032ad50cb490a519b8b0780a3c3,
AS,aom,av2,0,A1,FoodMarket2,3840x2160,60.0000,10,3840x2160,235,580.913241,29.416350,36.423742,36.474196,11.105447,8.666849,32.003047,31.361488,25.127180,31.362488,29.325635,36.346902,36.372227,0.087748,6982.08,10.38,55632705637300,43928119684,24298120858419,37295075031,348e73a2f2c5e3c1aaadc0f61e31a4d1,
AS,aom,av2,0,A1,FoodMarket2,3840x2160,60.0000,10,2560x1440,110,17498.860524,42.162180,47.458128,47.575860,30.404026,21.716353,99.963101,99.952706,42.715245,43.028287,42.092360,47.369009,47.468416,0.017734,19055.18,10.60,116719478879790,49299338011,50285506236197,28766197620,c82bbebce1d3751375bdff3e2be01f39,
AS,aom,av2,0,A1,FoodMarket2,3840x2160,60.0000,10,2560x1440,135,8389.922693,40.315651,45.378429,45.568663,26.681074,19.451450,99.911436,99.441299,39.100020,41.195291,40.249198,45.293643,45.461297,0.019278,20753.29,9.37,133316992556513,42452814261,54500162000564,25611332285,7a436fd0ad9d7433e881a0535a5d0cbd,
AS,aom,av2,0,A1,FoodMarket2,3840x2160,60.0000,10,2560x1440,160,3945.276877,37.576528,42.960103,43.182590,22.128704,16.423786,90.455774,88.110288,34.856661,38.723007,37.499124,42.875779,43.067112,0.020973,12085.58,6.95,100715371846232,36376307404,41718558523696,24979536709,24ed1e88386afc023f8afb8e66d8a734,
AS,aom,av2,0,A1,FoodMarket2,3840x2160,60.0000,10,2560x1440,185,1815.420272,34.402870,40.435730,40.605983,17.490056,13.204623,69.946366,68.165546,30.731154,35.934881,34.318078,40.356070,40.491180,0.027815,10448.28,5.60,73404000768811,25868486966,29809485266981,16452864472,13925323550f62f34b9c1b34419b55cf,
AS,aom,av2,0,A1,FoodMarket2,3840x2160,60.0000,10,2560x1440,210,794.226082,31.083035,37.945475,37.984941,13.121015,10.108949,45.209851,44.099352,26.919327,32.988512,30.994490,37.867698,37.874082,0.060533,7795.85,4.47,50126245288639,20308693947,20641571069564,12186400449,0b29d1df4e87182ccb830b762b1c6800,
AS,aom,av2,0,A1,FoodMarket2,3840x2160,60.0000,10,2560x1440,235,335.409821,27.897217,35.584453,35.418702,9.228581,7.400004,23.300748,22.904555,23.583536,30.092547,27.806733,35.505696,35.313149,0.139566,3931.88,3.85,32130014317606,20437770259,13591383849589,13729606599,b08b5329d73261755715eea9874dc912,
AS,aom,av2,0,A1,FoodMarket2,3840x2160,60.0000,10,1920x1080,110,12621.823715,41.107205,46.130784,46.270605,28.851821,20.658416,99.951294,99.938553,41.018536,42.010738,41.030108,46.030839,46.134195,0.018222,12091.00,6.75,74426116908417,31054499291,31853225219583,18188386363,ddc528f94416f14dd8d9391c0dd2549d,
AS,aom,av2,0,A1,FoodMarket2,3840x2160,60.0000,10,1920x1080,135,6186.135096,39.130587,44.146966,44.350571,24.928640,18.234123,98.617443,95.935548,37.327838,40.106466,39.056502,44.056130,44.223877,0.021927,13692.80,5.85,87480135587959,26062392675,35889045889889,15832910699,2d73f0127743f57294c646ab6ce0f072,
AS,aom,av2,0,A1,FoodMarket2,3840x2160,60.0000,10,1920x1080,160,2879.339737,36.308965,41.856454,42.034886,20.351281,15.165416,84.008803,81.394173,33.175882,37.605738,36.226129,41.769894,41.918160,0.025319,10337.17,4.40,67567832090279,21502849896,27207992389790,11907696532,0d3cd5a076e51eaaaf40f41154222158,
AS,aom,av2,0,A1,FoodMarket2,3840x2160,60.0000,10,1920x1080,185,1297.884884,33.121527,39.458349,39.596653,15.804766,12.002938,60.891844,59.217601,29.219771,34.833440,33.031339,39.370211,39.478775,0.046274,7327.06,3.15,49187688006059,15342590798,19331853626407,8432847665,3b6802f93169c95670c95479412a702d,
AS,aom,av2,0,A1,FoodMarket2,3840x2160,60.0000,10,1920x1080,210,550.769846,29.880172,37.163504,37.136307,11.621086,9.063286,37.180375,36.233852,25.632504,31.971866,29.788029,37.077143,37.022258,0.111491,5305.40,2.53,34799370242709,11710683358,14023690059809,6849430081,804105dcb9ccab9f598b761e258f93f4,
AS,aom,av2,0,A1,FoodMarket2,3840x2160,60.0000,10,1920x1080,235,225.555368,26.833003,34.972272,34.699530,7.959318,6.568144,18.401663,18.145721,22.542408,29.169262,26.741762,34.886564,34.593365,0.205368,3253.50,2.23,21553585556018,11389037307,8559953883633,6047119960,ffd67daa3b28d0af046d38dd9898dd8f,
AS,aom,av2,0,A1,FoodMarket2,3840x2160,60.0000,10,1280x720,110,7910.752632,38.541061,43.931734,44.215471,26.256270,18.367886,98.037653,95.395813,37.058075,39.981600,38.379395,43.808486,44.034485,0.015099,6815.75,2.97,52599431035888,16220159400,23358189220200,10371416639,3e67b09a490aba37db6f7bc105e51371,
AS,aom,av2,0,A1,FoodMarket2,3840x2160,60.0000,10,1280x720,135,3904.757396,36.819216,42.250918,42.504992,22.292437,16.109923,88.384887,85.559570,34.149251,38.213680,36.697458,42.142720,42.354425,0.020763,7870.12,2.64,50177158247334,13200750964,20608731105956,7043963857,d6f904c7e41217d45c84337b92108834,
AS,aom,av2,0,A1,FoodMarket2,3840x2160,60.0000,10,1280x720,160,1804.059325,34.274557,40.225417,40.417577,17.836179,13.257753,70.433831,68.014949,30.652746,35.876177,34.174206,40.123304,40.276770,0.034628,6059.73,2.16,39016035449881,10572777443,15897596770369,5814859210,3bac71de3c32be64543f3cc9ca74cc64,
AS,aom,av2,0,A1,FoodMarket2,3840x2160,60.0000,10,1280x720,185,796.007685,31.292609,38.149583,38.236494,13.538815,10.345500,46.960721,45.531912,27.153104,33.263999,31.193651,38.051343,38.102772,0.091088,4277.16,1.25,28654691915993,7142032184,11249415171797,3359400974,6e0d10fe104ebf9436a52e1f6ab3f79b,
AS,aom,av2,0,A1,FoodMarket2,3840x2160,60.0000,10,1280x720,210,326.140321,28.240891,36.090987,35.903831,9.644083,7.691838,26.141619,25.591450,23.940665,30.505439,28.146118,35.991060,35.785663,0.180269,3038.28,0.98,20377878930768,5505498892,8011141651406,2582106035,b18149b81e245e5bcbef1c2cbd78a70e,
AS,aom,av2,0,A1,FoodMarket2,3840x2160,60.0000,10,1280x720,235,128.954123,25.398019,34.057074,33.590159,6.363515,5.528969,12.445631,12.377762,21.175438,27.867146,25.309680,33.977642,33.486691,0.252260,1887.53,0.85,12394401524060,5030138457,4960139617456,2275260962,760091868832d1d42ef276c3d4eccb23,
AS,aom,av2,0,A1,FoodMarket2,3840x2160,60.0000,10,960x540,110,5746.842696,36.083436,42.374666,42.746752,24.498941,15.950068,86.904096,84.348246,33.163569,38.153325,35.848241,42.234760,42.543869,0.014521,7304.17,2.16,45047710123513,10690868367,19126111984715,5749262241,894c42988711928f273172df0d26f7b8,
AS,aom,av2,0,A1,FoodMarket2,3840x2160,60.0000,10,960x540,135,2860.568355,34.793800,40.947642,41.257540,20.543095,14.225639,75.992405,73.487199,31.323962,36.658408,34.619095,40.831295,41.092656,0.024769,4166.86,1.43,33418217004173,8295868882,14259054868750,5012849787,50840eff6e41a151a422818e3779281c,
AS,aom,av2,0,A1,FoodMarket2,3840x2160,60.0000,10,960x540,160,1306.674864,32.678587,39.198191,39.361578,16.154264,11.825945,57.565402,55.521957,28.694267,34.594010,32.555256,39.092470,39.219150,0.051476,3786.24,1.17,24071913820854,6270106020,9938489952914,3151731738,7de4cc548ea2c988b2a67a52aa718f5d,
AS,aom,av2,0,A1,FoodMarket2,3840x2160,60.0000,10,960x540,185,574.314301,30.059811,37.301397,37.330138,12.114872,9.281236,36.487206,35.394150,25.792259,32.201673,29.955712,37.203332,37.202706,0.137604,2674.63,0.75,17238908170079,4404301279,7037536246912,2007316522,72ee62c3a9fcb65a7d610a11acc211f8,
AS,aom,av2,0,A1,FoodMarket2,3840x2160,60.0000,10,960x540,210,231.387074,27.194208,35.429902,35.122919,8.422468,6.866009,19.088033,18.782573,22.892381,29.602367,27.097068,35.334647,34.995240,0.233255,1852.76,0.56,12114966983583,3231820059,4889177045247,1498782500,828f042a36ed659142534c639317786f,
AS,aom,av2,0,A1,FoodMarket2,3840x2160,60.0000,10,960x540,235,92.374087,24.529825,33.523933,32.962256,5.444333,4.940811,8.505833,8.579404,20.369469,27.070651,24.440643,33.444069,32.859174,0.313999,1209.47,0.46,7855267538511,2835260447,3193351387233,1227222589,f485324d01038076c18f299e65748f3e,
AS,aom,av2,0,A1,FoodMarket2,3840x2160,60.0000,10,640x360,110,3267.050488,32.697615,40.339875,40.693219,20.202465,12.557671,60.400561,58.468465,28.490435,35.457084,32.396826,40.197072,40.488821,0.012681,3685.11,1.07,22712742446540,5529116580,9654645796708,2839095492,13d9cd01d6f1d35788ed14dee8961721,
AS,aom,av2,0,A1,FoodMarket2,3840x2160,60.0000,10,640x360,135,1631.457773,31.849834,39.234349,39.496132,17.148332,11.454430,50.065698,48.333580,27.537573,34.341263,31.617702,39.114515,39.331623,0.029331,2768.52,0.80,17452094656248,4188246663,7255584482343,2105824089,262f0a7ab896e1da76efab636b28ebbf,
AS,aom,av2,0,A1,FoodMarket2,3840x2160,60.0000,10,640x360,160,757.598094,30.317595,37.748410,37.837805,13.466506,9.739562,35.461186,34.233476,25.928095,32.652450,30.157678,37.639324,37.688687,0.097626,1852.26,0.55,11823398101178,3051528608,4860979237587,1449243481,30ee6e2c953887e8490c6a997ace1dbc,
AS,aom,av2,0,A1,FoodMarket2,3840x2160,60.0000,10,640x360,185,335.557366,28.170583,36.093982,35.954430,9.918416,7.720952,20.901271,20.415576,23.791451,30.552150,28.057920,35.989679,35.826332,0.202836,1244.36,0.40,8058725293469,2416557587,3272916766938,1068939770,95f9b93ffb8788cdc7a2f41aed44ab78,
AS,aom,av2,0,A1,FoodMarket2,3840x2160,60.0000,10,640x360,210,133.421040,25.640598,34.414703,33.998459,6.664524,5.713378,10.493965,10.513306,21.398627,28.186866,25.543793,34.303770,33.882912,0.307867,863.54,0.23,5704756083621,1476568455,2276954804566,625583125,117d3efa4a6d2cee2e38ab2fd662bff2,
AS,aom,av2,0,A1,FoodMarket2,3840x2160,60.0000,10,640x360,235,53.883347,23.178537,32.715837,31.996546,4.223684,4.155179,4.973054,5.160181,19.142961,25.812920,23.097225,32.641063,31.915652,0.414183,555.28,0.19,3746521811278,1174037271,1467209833528,492427448,6253415057043295f332e4a30f37aaf1,
AS,aom,av2,0,A1,Neon1224,3840x2160,30.0000,10,3840x2160,110,41732.685776,44.784018,48.602478,47.944703,28.362222,22.481989,99.976920,99.972497,43.733742,46.669100,44.692564,48.454053,47.795064,1.019585,32223.53,34.49,184162668928119,183909903037,84127723461039,94576215852,fa6b4aba34cc9a1660f39f20edb05ab5,
AS,aom,av2,0,A1,Neon1224,3840x2160,30.0000,10,3840x2160,135,18869.999539,41.471364,45.662431,44.818688,23.958045,19.621946,99.309677,98.518541,39.736535,43.942626,41.342444,45.571120,44.695644,1.181914,37027.40,28.49,219346829570854,145428165442,96691851666475,78963101630,7a325e2256beb91d958d81903e75d3f6,
AS,aom,av2,0,A1,Neon1224,3840x2160,30.0000,10,3840x2160,160,8613.379236,38.472601,42.566057,41.517877,20.324518,17.116014,90.676407,88.451258,35.779798,41.254170,38.344093,42.462032,41.365696,1.339213,27737.05,23.60,169169784391632,117235928876,72646194762729,66204167466,937bcee9246750ebb5e05fe76febc521,
AS,aom,av2,0,A1,Neon1224,3840x2160,30.0000,10,3840x2160,185,3966.242988,35.362489,39.275061,37.968403,16.769417,14.555850,72.946094,70.615795,31.762724,38.366682,35.222799,39.133011,37.762900,1.480989,21827.35,19.14,137156029426450,87270245255,57314288040586,53740409272,ad51341fe2aabab448b664d0cd1affd8,
AS,aom,av2,0,A1,Neon1224,3840x2160,30.0000,10,3840x2160,210,1721.747791,32.038126,35.819247,34.166767,13.146799,11.902728,49.720712,47.840021,27.780812,35.134041,31.889718,35.649290,33.909000,1.656502,16354.13,14.22,103937237974832,64755370745,43139441612839,40194104228,487824fd51fef2c4315a1f3ba47e3b28,
AS,aom,av2,0,A1,Neon1224,3840x2160,30.0000,10,3840x2160,235,731.440252,28.852377,32.599969,30.519039,9.920586,9.483095,27.232466,25.978776,24.260678,31.961737,28.717917,32.420177,30.236440,1.903002,10921.40,11.85,71205011474140,57129802091,29002510528449,33672409038,13c82525b81018e2cafe161890ad5bba,
AS,aom,av2,0,A1,Neon1224,3840x2160,30.0000,10,2560x1440,110,24822.967801,42.207241,46.933506,46.147495,25.700362,20.703808,99.904467,99.622234,41.373828,44.927582,42.156306,46.837301,46.030044,1.165679,22505.03,18.94,126396501118085,93972150268,59120843696190,51581920525,2345d6fe633fc258602d8177568dc5c5,
AS,aom,av2,0,A1,Neon1224,3840x2160,30.0000,10,2560x1440,135,11663.987090,39.630825,44.054483,43.060302,21.921560,18.236352,95.683881,93.934204,37.572405,42.506959,39.540014,43.963557,42.927505,1.318721,24986.93,14.31,147327023608945,74894607361,65387352937117,39210604889,37fbda462b73f66a34eaf33761c947a4,
AS,aom,av2,0,A1,Neon1224,3840x2160,30.0000,10,2560x1440,160,5447.990778,36.767933,40.944079,39.745737,18.410336,15.763802,81.708036,79.308574,33.618136,39.847554,36.649652,40.825777,39.573919,1.375141,17371.12,11.14,112236072733617,59342062100,48945335442555,33108131452,de70a3603b5557e0b4e0e369e48fe34f,
AS,aom,av2,0,A1,Neon1224,3840x2160,30.0000,10,2560x1440,185,2465.753324,33.613602,37.667433,36.197770,14.861986,13.181132,61.456021,59.193990,29.658938,36.893758,33.473814,37.513589,35.976072,1.537149,13360.91,8.37,88321527815300,43382324660,37648553416984,25023884843,6f5b0f9896a67b718a1f9263b781b6e3,
AS,aom,av2,0,A1,Neon1224,3840x2160,30.0000,10,2560x1440,210,1037.022055,30.397328,34.374908,32.526156,11.483195,10.689349,37.406162,35.860746,25.954865,33.746768,30.259412,34.202211,32.257632,1.585552,9782.29,6.04,63431381628843,30359600738,25684752365724,16877317200,0146cb7e113962c2816993a638a3b690,
AS,aom,av2,0,A1,Neon1224,3840x2160,30.0000,10,2560x1440,235,423.333589,27.357883,31.384933,29.126108,8.592820,8.492473,16.283048,15.446481,22.732493,30.678157,27.237484,31.212758,28.843002,1.786943,6168.28,5.02,40871546559150,25943698982,16281976955003,14200512567,cacb52f800f0195f33dee15159cc5831,
AS,aom,av2,0,A1,Neon1224,3840x2160,30.0000,10,1920x1080,110,17461.675555,40.605594,45.791841,44.877530,24.050985,19.608824,98.877811,97.752527,39.731619,43.825062,40.567506,45.709205,44.767801,1.340455,14777.93,12.56,84273657250861,60810541215,38846499338866,34043908519,2d36f3a4e6d4c188757100e4840e4c8a,
AS,aom,av2,0,A1,Neon1224,3840x2160,30.0000,10,1920x1080,135,8440.427265,38.312398,42.871008,41.752666,20.547495,17.276503,90.511275,88.216499,35.990695,41.473320,38.236542,42.771257,41.606035,1.469174,18011.67,9.78,103598917557404,47626581057,47236557320840,26658146967,0fe0453fb4dd602a8a2fc6c668ccef53,
AS,aom,av2,0,A1,Neon1224,3840x2160,30.0000,10,1920x1080,160,3939.476523,35.485234,39.757511,38.414624,17.040858,14.783219,73.784513,71.413248,32.052185,38.781249,35.371181,39.630328,38.228484,1.550548,13346.40,7.33,81340472936096,37425830675,34924730224097,20095399683,116445903385fbf365c36e29dd0f9f66,
AS,aom,av2,0,A1,Neon1224,3840x2160,30.0000,10,1920x1080,185,1746.800891,32.369749,36.536119,34.914709,13.532378,12.220466,52.460537,50.403452,28.219738,35.820712,32.233047,36.382295,34.685678,1.628305,10358.87,5.04,64080739067808,25717132709,27077051638295,13942428411,d2cce2e05c7a9c7aa86f5b2ea19c96bb,
AS,aom,av2,0,A1,Neon1224,3840x2160,30.0000,10,1920x1080,210,718.297702,29.261814,33.370062,31.325186,10.374685,9.863179,28.917736,27.636972,24.731230,32.744380,29.133979,33.198488,31.052610,1.763826,6906.78,3.69,44606551102938,17633028567,18098074754556,10268713741,91aacd64e3fcfc4d604d5201a7b47aad,
AS,aom,av2,0,A1,Neon1224,3840x2160,30.0000,10,1920x1080,235,282.273419,26.305355,30.538370,28.169039,7.718329,7.821717,9.196074,8.677068,21.697796,29.762621,26.193098,30.374049,27.893843,1.786217,3879.21,2.61,27465870629014,14727063992,10985873716087,7891190127,88eba6d49ef2837edb41e8429450c898,
AS,aom,av2,0,A1,Neon1224,3840x2160,30.0000,10,1280x720,110,10624.770307,37.758449,43.662996,42.392904,22.010114,17.929408,91.129681,88.832549,36.139391,41.964860,37.730106,43.599528,42.305464,1.492461,10194.35,6.49,58078261462388,32185110822,26796595310971,17375884413,2403ce68311f18f8a7a6b7e60f7da658,
AS,aom,av2,0,A1,Neon1224,3840x2160,30.0000,10,1280x720,135,5253.191117,35.978437,40.877560,39.519953,18.637356,15.757565,78.002736,75.563683,33.101200,39.757324,35.926052,40.776112,39.377377,1.623459,10556.56,5.05,61688193165565,25152263065,27681781644419,13641431908,8295942be16eefde234cde249b531c39,
AS,aom,av2,0,A1,Neon1224,3840x2160,30.0000,10,1280x720,160,2423.431953,33.467087,37.898523,36.333291,15.131375,13.333255,59.452411,57.313766,29.630816,37.125287,33.374794,37.767630,36.141485,1.711480,8350.01,3.66,50349364082269,19294838646,21844186401975,9961659044,b341dd87aee44ecb460fa50aba31e752,
AS,aom,av2,0,A1,Neon1224,3840x2160,30.0000,10,1280x720,185,1048.880965,30.611727,34.866093,33.037151,11.815392,10.934224,38.299790,36.678757,26.231087,34.236523,30.496839,34.714602,32.801120,1.784849,5918.82,2.26,39521176468588,12757752522,16635343704926,6644657699,b137ad420ce0adc94968b842aeed3c69,
AS,aom,av2,0,A1,Neon1224,3840x2160,30.0000,10,1280x720,210,418.125259,27.685888,31.967881,29.727835,8.951793,8.781364,16.739012,15.942088,23.094826,31.276814,27.570875,31.807856,29.459802,1.771049,3804.52,1.38,26461764273224,8236534929,10704466548017,4019525481,f7e1b0eada7633c30e5a6b9691f50d6f,
AS,aom,av2,0,A1,Neon1224,3840x2160,30.0000,10,1280x720,235,155.635749,24.879170,29.454909,26.893337,6.619446,6.955854,3.122457,2.958202,20.334930,28.439553,24.777017,29.295209,26.623428,1.860160,2296.60,1.10,15304430159968,6696006231,6030327233023,3058709195,9bfd2b173c3098fd370ff70c01124f16,
AS,aom,av2,0,A1,Neon1224,3840x2160,30.0000,10,960x540,110,7460.449704,35.605122,41.901391,40.257686,20.710462,16.430870,78.893431,76.462541,32.834145,40.486549,35.576444,41.850315,40.183486,1.582201,8455.22,3.94,52096430848405,20400334859,23864366634234,11304969834,7902f3711b9cb43402cf806b9670fc55,
AS,aom,av2,0,A1,Neon1224,3840x2160,30.0000,10,960x540,135,3773.846461,34.248931,39.394454,37.806756,17.399044,14.562942,65.547673,63.236707,30.743643,38.472269,34.210644,39.302064,37.679587,1.741704,6582.41,3.14,41011168952169,16059096883,18553482638544,9044947480,272f199f812604e15a86c909dbaa9042,
AS,aom,av2,0,A1,Neon1224,3840x2160,30.0000,10,960x540,160,1717.799124,32.056084,36.588923,34.837178,13.870243,12.299936,47.528996,45.656066,27.900589,35.955088,31.983161,36.464281,34.654679,1.869444,4997.40,2.38,30247202750715,12224825825,13064409733693,6407151627,6d60bc4fe80c87a186537b550fb37f5b,
AS,aom,av2,0,A1,Neon1224,3840x2160,30.0000,10,960x540,185,746.451087,29.487725,33.803654,31.763503,10.768859,10.120859,28.319329,27.100536,24.978931,33.216146,29.390540,33.658311,31.534583,1.893531,3501.36,1.46,21637025463320,7810855744,9154393654553,3972893725,b6332dd816e732a9c97514d28fc0c692,
AS,aom,av2,0,A1,Neon1224,3840x2160,30.0000,10,960x540,210,291.068931,26.691578,31.121394,28.761342,8.093351,8.113562,9.625147,9.140926,22.101423,30.392323,26.588612,30.969817,28.498155,1.956225,2323.09,0.88,14538867064059,4910888782,6080250241158,2380332202,2b3188a2542979b8cd1b4e0febf76ffb,
AS,aom,av2,0,A1,Neon1224,3840x2160,30.0000,10,960x540,235,104.887728,23.999551,28.772305,26.166811,6.007838,6.450008,1.328131,1.268215,19.516802,27.651383,23.906401,28.609501,25.900168,2.039669,1329.18,0.67,8563761648461,4019838930,3488493642595,1891818350,4a9cb82fdfa2016795d46bb95ca32c6b,
AS,aom,av2,0,A1,Neon1224,3840x2160,30.0000,10,640x360,110,4380.982095,32.791151,39.139787,37.092889,18.295516,14.165601,53.039598,51.161842,28.718094,38.195244,32.761933,39.093178,37.021055,1.677284,4810.04,2.12,27641162708792,10429577060,12649169763286,5688583426,56016f55c1a4e497de7db780c11d9b4f,
AS,aom,av2,0,A1,Neon1224,3840x2160,30.0000,10,640x360,135,2224.032583,31.805025,37.076394,35.187463,15.200191,12.678077,41.474034,39.825592,27.485467,36.434398,31.774137,36.992971,35.072529,1.841709,3715.74,1.60,21988946603157,8159913000,9746993201223,4296992205,0eb20b5c26e5d2021561688ff2d43dc8,
AS,aom,av2,0,A1,Neon1224,3840x2160,30.0000,10,640x360,160,1006.299547,30.039424,34.619177,32.639800,11.976085,10.791988,26.776503,25.618728,25.491323,34.132999,29.986809,34.503949,32.463296,1.964299,2799.31,1.19,16833329898879,6045287956,7328904627047,3250867058,a7ef942da95455b690897a33dfeb54ea,
AS,aom,av2,0,A1,Neon1224,3840x2160,30.0000,10,640x360,185,429.089680,27.773308,32.182196,29.966317,9.209683,8.912367,11.792937,11.254300,23.147133,31.577129,27.694521,32.047488,29.739317,2.103576,1931.01,0.74,12066714264134,3825804488,5048533054214,1994010241,01416ddd17c1e49d362f6e04ff26c51c,
AS,aom,av2,0,A1,Neon1224,3840x2160,30.0000,10,640x360,210,159.971721,25.145747,29.866620,27.328766,6.857543,7.138038,1.802134,1.755954,20.606015,28.895639,25.054403,29.726468,27.074321,2.174515,1162.87,0.38,7583167957963,2255402271,3044706118031,1023401227,cdfe62d77d929d23d3dd8467ca4bebc6,
AS,aom,av2,0,A1,Neon1224,3840x2160,30.0000,10,640x360,235,55.113502,22.741717,27.755395,25.160186,5.215648,5.772702,0.188748,0.187813,18.368295,26.405952,22.663966,27.600043,24.884395,2.148920,575.03,0.27,3823447902005,1791730774,1511547596473,736648384,d60835eaee20741f3f6101171ba075c6,
AS,aom,av2,0,A1,NocturneDance,3840x2160,60.0000,10,3840x2160,110,50819.047385,46.275947,43.466564,48.423715,26.927731,21.792649,93.589452,91.510753,43.285588,44.779241,46.199585,43.394712,48.364141,0.704319,49390.26,32.95,323334055499268,156016893023,138465509505355,96672526394,8deb45c397fbfaf8ebfd05e736440af6,
AS,aom,av2,0,A1,NocturneDance,3840x2160,60.0000,10,3840x2160,135,22098.195692,43.079148,41.503611,46.903025,22.819286,18.649510,83.386928,81.444640,39.396543,42.663539,43.000244,41.461625,46.866920,0.837758,65015.24,27.72,401789672539940,121092607778,169215172622157,76220060995,4621ac8f3c949f677c7ffd7b76e68f16,
AS,aom,av2,0,A1,NocturneDance,3840x2160,60.0000,10,3840x2160,160,9639.197538,39.810253,39.798670,45.422267,18.648307,15.452789,66.170188,64.467111,35.631539,40.621673,39.714139,39.774253,45.397952,0.780791,44760.94,20.69,288825672334506,87068692779,116691987517241,57289529007,1ee9928d8610a4ad6f14d8f920874f44,
AS,aom,av2,0,A1,NocturneDance,3840x2160,60.0000,10,3840x2160,185,3843.057231,36.419592,38.108476,43.742495,14.328782,12.143385,42.699492,41.570153,31.949948,38.496797,36.299907,38.088646,43.724947,0.695547,29024.50,14.28,191689482852999,55627175447,75872685302081,39446477759,f3e636b94defaf574b38d1276e612ee9,
AS,aom,av2,0,A1,NocturneDance,3840x2160,60.0000,10,3840x2160,210,1071.603692,33.201072,36.486206,42.272885,10.048475,9.053216,18.994759,18.498096,28.643170,36.349461,33.094246,36.470086,42.260549,0.991284,15785.01,9.21,103967683477778,36977070736,41613288966226,25375982667,9bf86064b00af5c22292b875f109ca21,
AS,aom,av2,0,A1,NocturneDance,3840x2160,60.0000,10,3840x2160,235,256.611692,31.304583,35.441831,40.649604,7.648738,7.425452,7.015472,6.760482,26.830574,34.584080,31.259072,35.432589,40.629844,1.744521,5123.43,7.22,42850695956640,30428814567,18026054200844,26315523312,0711448f485bde85c64e4b5acc8a8955,
AS,aom,av2,0,A1,NocturneDance,3840x2160,60.0000,10,2560x1440,110,31162.652308,44.454710,42.008785,47.266942,24.595599,19.979796,89.095138,86.915294,41.010685,43.391207,44.385110,41.966422,47.222938,0.852711,35111.22,17.53,205953175324418,80212098409,91641845543700,47427617711,6484e81a5218756512b6fd7ba22cf71a,
AS,aom,av2,0,A1,NocturneDance,3840x2160,60.0000,10,2560x1440,135,13583.571692,41.304583,40.389697,45.944574,20.577696,16.906419,75.957187,73.817899,37.293100,41.472291,41.224342,40.360864,45.914866,0.939701,38577.65,14.39,238233058859816,62129596464,100495173419412,39398771267,08022aac2e64b9a63966c1c46fb9636b,
AS,aom,av2,0,A1,NocturneDance,3840x2160,60.0000,10,2560x1440,160,5702.824615,38.000603,38.845793,44.550924,16.369487,13.692065,54.988374,53.319923,33.624577,39.491507,37.897712,38.826594,44.532282,0.937697,25872.02,9.95,166283734434301,43849781624,67376062493823,27372757527,aee89a4ad2892fd105038854e1ada8cb,
AS,aom,av2,0,A1,NocturneDance,3840x2160,60.0000,10,2560x1440,185,1973.638154,34.705307,37.308948,43.097809,12.026331,10.470732,29.660612,28.866655,30.156123,37.413252,34.590467,37.290552,43.081383,0.987584,15755.38,6.19,104257551281500,26827668935,41125164278840,16982535759,c0ab856ff9590b01ec8b58a0f4d77fbb,
AS,aom,av2,0,A1,NocturneDance,3840x2160,60.0000,10,2560x1440,210,454.102154,32.058249,35.986435,41.519667,8.536317,8.014377,10.322075,10.069286,27.537024,35.469081,31.982680,35.972987,41.508864,1.660194,6961.40,3.91,46820165357570,16200171322,18342772463232,10735745774,3581aa97e281d4af3d254f46f40b0c4d,
AS,aom,av2,0,A1,NocturneDance,3840x2160,60.0000,10,2560x1440,235,113.213538,30.778723,35.128401,39.966093,7.121091,7.102777,2.865003,2.736693,26.357162,34.012066,30.755711,35.122102,39.957002,2.118244,2824.86,2.82,19507303285590,12517759295,7616043698639,7996086866,dd1293209b94290912b78b4837e843c0,
AS,aom,av2,0,A1,NocturneDance,3840x2160,60.0000,10,1920x1080,110,22122.974769,43.103427,40.742739,46.292251,22.886232,18.655187,84.558976,82.321024,39.361196,42.303309,43.034743,40.715273,46.255827,0.887166,23088.42,11.11,137092402843380,51070164761,60313908289334,29883085602,8950d4d527a91d3caf026279ff95b6ed,
AS,aom,av2,0,A1,NocturneDance,3840x2160,60.0000,10,1920x1080,135,9566.126769,39.982254,39.459272,45.150527,18.907493,15.630604,68.959974,66.830556,35.789041,40.567957,39.898894,39.436951,45.125030,0.984380,25345.83,8.48,155541532303839,38972016566,66045128808912,22929192692,23cf91b379015eef60acf2aae3b96c00,
AS,aom,av2,0,A1,NocturneDance,3840x2160,60.0000,10,1920x1080,160,3768.782769,36.676980,38.115851,43.906733,14.645668,12.400635,45.605185,44.172665,32.201191,38.637604,36.571936,38.097168,43.890208,1.091028,15604.52,5.61,107818184251360,26433334633,43741337436517,16438443105,4eb1553bac6cc89371892e63897ff5c5,
AS,aom,av2,0,A1,NocturneDance,3840x2160,60.0000,10,1920x1080,185,1128.708923,33.563755,36.771095,42.648501,10.478775,9.386809,21.101517,20.551514,29.006530,36.668244,33.460852,36.754537,42.635977,1.388021,7394.83,3.19,62614881111434,14533668538,25218910517863,11317211292,ba6a49cbb0955ae91f73ac1a697d48f4,
AS,aom,av2,0,A1,NocturneDance,3840x2160,60.0000,10,1920x1080,210,253.355077,31.530014,35.713308,41.141804,7.884353,7.580443,7.314049,7.127927,27.046498,34.964171,31.481509,35.701647,41.132218,2.138362,3905.59,2.15,26211868655376,8473799719,10287548735078,5946740184,655f9a49424a791fe615da36a5cc9d31,
AS,aom,av2,0,A1,NocturneDance,3840x2160,60.0000,10,1920x1080,235,66.819692,30.426934,34.821230,39.530869,6.820224,6.917587,1.623302,1.506603,26.045577,33.607602,30.410492,34.813545,39.516996,2.560202,1552.47,1.47,11310252283957,6394386542,4480645445137,4386770455,40d2d29a970b2cecdf96aa61c7d29f66,
AS,aom,av2,0,A1,NocturneDance,3840x2160,60.0000,10,1280x720,110,13311.208615,41.014634,38.903077,44.957213,20.550514,16.698166,75.208310,72.961916,36.908647,40.712938,40.960064,38.882054,44.928438,0.823121,15882.60,5.73,94131446549920,26837068146,41519399927918,15359471726,a710eab24319c4fb0e8ebcbba6f53753,
AS,aom,av2,0,A1,NocturneDance,3840x2160,60.0000,10,1280x720,135,5600.436923,38.033921,38.052731,44.088940,16.544606,13.759481,56.129939,54.247688,33.612727,39.224251,37.950267,38.034696,44.068708,1.013892,13672.69,4.15,83823992587278,19640434215,35593990174701,11135173785,2bf1ed89067eb1f7c660a2fe1519f127,
AS,aom,av2,0,A1,NocturneDance,3840x2160,60.0000,10,1280x720,160,1918.966154,34.852474,37.150188,43.112895,12.241285,10.641510,31.095076,30.175417,30.292654,37.467534,34.749513,37.134963,43.099420,1.410083,8917.25,2.63,57225033297990,12406781421,23213115540395,7084348366,1751da21746884eeb237628f65db65db,
AS,aom,av2,0,A1,NocturneDance,3840x2160,60.0000,10,1280x720,185,470.237538,32.260922,36.156782,41.948769,8.762948,8.191684,10.608675,10.335470,27.738468,35.703416,32.186082,36.141741,41.935172,2.021570,4313.45,1.18,28267530598473,6021813996,11253194938999,3186938608,e455f231f324c03e2289e1f4c87b789d,
AS,aom,av2,0,A1,NocturneDance,3840x2160,60.0000,10,1280x720,210,107.808000,30.977505,35.330216,40.473942,7.272953,7.200291,3.616308,3.499767,26.543536,34.368439,30.952793,35.321819,40.460386,2.786962,1804.72,0.71,12086752663100,3550132681,4749963997688,1968592703,9ac4ee13928b55b0141d894bc44533ad,
AS,aom,av2,0,A1,NocturneDance,3840x2160,60.0000,10,1280x720,235,38.617846,29.885627,34.495686,38.832226,6.501917,6.716488,0.202631,0.186380,25.577483,33.013666,29.872671,34.487850,38.817878,3.264005,800.00,0.49,5432091215528,2752691765,2137543969268,1326225741,299317d035419510aa707ca743528839,
AS,aom,av2,0,A1,NocturneDance,3840x2160,60.0000,10,960x540,110,9130.777846,39.160241,37.881442,44.265792,18.866270,14.961593,64.181042,62.103531,34.774262,39.597412,39.121682,37.861724,44.240299,0.769925,12624.15,3.44,75147448620587,17155872924,33008667857085,9196228857,cb14a8c0ed6b34666b4d92e854009415,
AS,aom,av2,0,A1,NocturneDance,3840x2160,60.0000,10,960x540,135,3717.876923,36.569268,37.293416,43.548312,14.856775,12.347734,44.431957,42.914524,32.009425,38.312678,36.496529,37.276094,43.530232,1.076686,8384.96,2.56,51607411445617,11721964293,21870659609145,6843716425,3a5fd31219c1b8c88c70ac9309149093,
AS,aom,av2,0,A1,NocturneDance,3840x2160,60.0000,10,960x540,160,1125.574154,33.708634,36.618140,42.668563,10.734508,9.550212,21.400171,20.807109,29.128638,36.727161,33.617470,36.602218,42.653963,1.685554,4922.85,1.29,30962336103153,6571561033,12818221662897,3468767098,573d26887d669aea4a37627ef0eedbeb,
AS,aom,av2,0,A1,NocturneDance,3840x2160,60.0000,10,960x540,185,271.126154,31.707448,35.837504,41.522113,8.077527,7.721815,6.761375,6.588795,27.215109,35.223019,31.655291,35.826480,41.510037,2.473893,2192.22,0.52,14397979968342,3070942577,5715129210449,1351005628,9715f9eb4f1a4221c472f54944543362,
AS,aom,av2,0,A1,NocturneDance,3840x2160,60.0000,10,960x540,210,67.883077,30.645144,35.085227,40.044039,6.974188,7.024599,1.506665,1.444117,26.248895,33.952567,30.627367,35.075824,40.028364,3.236659,977.26,0.35,6444771233138,1909825823,2567865221593,925282211,df4ca4f23711ad48fae314592fa88598,
AS,aom,av2,0,A1,NocturneDance,3840x2160,60.0000,10,960x540,235,30.690462,29.492387,34.182354,38.238948,6.301167,6.585321,0.011142,0.010117,25.236561,32.502875,29.478205,34.178128,38.232091,3.533837,461.83,0.25,3057121222099,1548772818,1227111068785,725171887,27c686bc0dcc301bb57b4cefc97d6d5a,
AS,aom,av2,0,A1,NocturneDance,3840x2160,60.0000,10,640x360,110,4521.090462,36.183769,36.943645,43.529824,15.531803,12.136255,38.918602,37.543775,31.448533,37.995060,36.152100,36.926631,43.509950,0.694347,5585.23,1.67,33480443792741,8389658851,14602061756206,4459549289,045b75029324dc2dca87c2b8070b6c1f,
AS,aom,av2,0,A1,NocturneDance,3840x2160,60.0000,10,640x360,135,1643.844923,34.321466,36.575184,42.908385,12.000547,10.180141,22.432271,21.661700,29.644070,36.994550,34.270243,36.560015,42.893920,1.261983,3855.59,1.05,24165415031417,5463487004,10048681751401,2798908972,5f6840826a79af20d97586d55a3a0356,
AS,aom,av2,0,A1,NocturneDance,3840x2160,60.0000,10,640x360,160,424.260923,32.287594,36.059867,41.993623,8.892584,8.242678,7.836095,7.614281,27.734675,35.713112,32.232952,36.046676,41.983455,2.158930,1796.46,0.42,12447346766783,2389784329,5041568578280,1198796879,5d9f2513ad1339c042d00b742987b614,
AS,aom,av2,0,A1,NocturneDance,3840x2160,60.0000,10,640x360,185,115.351385,31.102059,35.459866,40.771408,7.395728,7.278958,1.686605,1.630393,26.657461,34.548201,31.076410,35.449716,40.759452,2.984483,607.39,0.17,5261020180155,1262153741,2079064900108,581867103,a1c04e22ad7a751955783cae5ea8c955,
AS,aom,av2,0,A1,NocturneDance,3840x2160,60.0000,10,640x360,210,39.485538,30.100723,34.736206,39.414665,6.613212,6.794388,0.075653,0.068136,25.777680,33.398440,30.087919,34.728758,39.400075,3.609120,370.61,0.14,2558169247493,882920469,979348751258,388987023,6e4f6e92dcb5f5704b61d7efd63e86ad,
AS,aom,av2,0,A1,NocturneDance,3840x2160,60.0000,10,640x360,235,21.374769,28.811724,33.738583,37.635428,6.039374,6.417329,0.000000,0.000000,24.652416,31.813477,28.796390,33.735421,37.622903,3.877685,166.11,0.09,1448375941686,619992247,577162960478,309657178,afda8a277ffdfb2deb449a21a3fe4251,
AS,aom,av2,0,A1,PierSeaSide,3840x2160,30.0000,10,3840x2160,110,11846.654103,44.475247,47.059578,44.386958,31.263603,23.214864,99.638525,98.734709,44.769683,44.005362,44.328476,46.963044,44.272689,0.001333,31541.92,16.76,258776790390801,83969228668,108195532680063,60057144119,346e9cbec02457994b307adef63f1e94,
AS,aom,av2,0,A1,PierSeaSide,3840x2160,30.0000,10,3840x2160,135,3913.264972,42.718163,45.962656,43.558753,27.733750,20.971841,97.886965,96.049168,41.835928,42.896414,42.471003,45.866227,43.456327,0.001855,30432.82,15.88,253945641423858,69334347184,104491744198656,57362355016,2ed13eb54f7478e5fc6cd41ca31a17c0,
AS,aom,av2,0,A1,PierSeaSide,3840x2160,30.0000,10,3840x2160,160,1311.472446,40.547215,44.579949,42.707032,23.897215,18.528064,92.039377,89.874162,38.640431,41.530061,40.230700,44.488448,42.614758,0.003791,21898.04,11.99,144229572301785,49813592044,58068315005956,33070731350,2ed7a944effa97618f09adbac5303399,
AS,aom,av2,0,A1,PierSeaSide,3840x2160,30.0000,10,3840x2160,185,469.197410,38.199473,42.709270,41.485528,20.521706,16.273479,82.199146,80.071109,35.500904,39.848511,37.901567,42.638044,41.411093,0.009079,9420.48,7.10,80608884017041,31964709492,33106647873212,25389112048,15fd82659a73a4b42cf8e2b621d10d67,
AS,aom,av2,0,A1,PierSeaSide,3840x2160,30.0000,10,3840x2160,210,183.547346,35.637838,40.562943,39.880142,17.488906,14.130664,66.823596,64.808187,32.244445,37.869324,35.419470,40.521271,39.830007,0.028738,7394.38,6.73,49215817875040,25914595709,20016987234822,18425986790,e722027f2326db5cb95f90c07778a8c6,
AS,aom,av2,0,A1,PierSeaSide,3840x2160,30.0000,10,3840x2160,235,80.402594,32.820184,37.937499,37.917456,14.451955,11.906608,44.657018,42.989616,28.828398,35.479734,32.685709,37.916352,37.886006,0.108367,4567.98,6.30,29995852281492,25737451241,12423274991516,17513385060,e14f903f1d8b3568e210b439a31fabd3,
AS,aom,av2,0,A1,PierSeaSide,3840x2160,30.0000,10,2560x1440,110,5929.875266,43.138487,46.087379,43.304444,29.325754,21.918978,98.860655,97.179392,43.052707,43.029165,42.886959,45.966542,43.160625,0.001300,15724.49,8.21,125494145630906,39732032236,53906023867644,29405702814,a5b1792ace2c8bedc53393bc62e4de50,
AS,aom,av2,0,A1,PierSeaSide,3840x2160,30.0000,10,2560x1440,135,2055.844252,41.371767,45.080461,42.691259,25.644410,19.627333,95.606183,92.914947,40.051658,42.004450,41.042165,44.969955,42.559126,0.003045,18724.04,6.68,121141273412292,32026153470,49096358575947,18394951551,c025875ecf940491f609218451cb91fb,
AS,aom,av2,0,A1,PierSeaSide,3840x2160,30.0000,10,2560x1440,160,711.454602,39.232925,43.523400,41.866546,22.043318,17.278172,87.972776,85.199547,36.937905,40.604739,38.895661,43.433554,41.763544,0.006903,10082.00,4.81,66866071622196,22091462853,26673178850210,13289028848,cc3eff7f0a184fa03b7be3049710bff1,
AS,aom,av2,0,A1,PierSeaSide,3840x2160,30.0000,10,2560x1440,185,270.209520,36.901097,41.591106,40.581452,19.005012,15.184702,75.839136,73.353428,33.846695,38.888691,36.632938,41.529017,40.510984,0.018937,5828.02,3.40,39427097285126,17068490595,15613270950767,9335647766,a51a6b2daf26f8798867c744c30d8204,
AS,aom,av2,0,A1,PierSeaSide,3840x2160,30.0000,10,2560x1440,210,111.045766,34.293813,39.430087,39.025245,16.153000,13.103451,57.666972,55.496462,30.591233,36.859323,34.104512,39.397502,38.980904,0.068396,3947.85,2.63,27290059010054,11476794502,10723788910224,7199730944,dbca125563d33e56a809a58afb2834d5,
AS,aom,av2,0,A1,PierSeaSide,3840x2160,30.0000,10,2560x1440,235,49.342608,31.437708,36.928055,37.119240,13.030049,10.829420,33.765675,32.136798,27.248108,34.430276,31.331448,36.906519,37.093483,0.154950,2497.12,2.39,17143507010716,10775110545,6785951314349,6569483483,7bc860d4050e5185ffae61bd468cd1b6,
AS,aom,av2,0,A1,PierSeaSide,3840x2160,30.0000,10,1920x1080,110,3609.448477,41.449895,44.955232,42.535686,27.794850,20.673332,96.519782,93.896835,41.360923,42.041436,41.026694,44.822155,42.384237,0.001683,19153.02,5.44,121366058350044,23881634190,50109200578548,14816011843,3361f480ecf58e8aed8071894ea9a4c3,
AS,aom,av2,0,A1,PierSeaSide,3840x2160,30.0000,10,1920x1080,135,1291.808437,39.966597,44.035435,42.028386,24.176216,18.531440,91.671630,88.772558,38.569709,41.113685,39.538080,43.919839,41.894898,0.004950,18801.16,3.77,123230180231072,17963407201,49078016243545,10295213478,e0ef06eafdef8de381ae815b0f435eda,
AS,aom,av2,0,A1,PierSeaSide,3840x2160,30.0000,10,1920x1080,160,468.055783,38.060215,42.541566,41.189520,20.845272,16.390638,82.900611,80.091171,35.626167,39.785678,37.695347,42.457325,41.087230,0.015638,11024.36,2.87,73088054405686,12035301025,28978374283356,7804533075,e29c73488e3f40b7c0f7640fbc9b9462,
AS,aom,av2,0,A1,PierSeaSide,3840x2160,30.0000,10,1920x1080,185,185.812156,35.839110,40.635380,39.874177,17.958754,14.377814,69.331923,66.875550,32.585052,38.089075,35.583451,40.583052,39.808700,0.042300,6802.32,2.21,45144207831148,9914757266,17969563924963,6071586406,f0923ecc073a887d6251a7b5d790a216,
AS,aom,av2,0,A1,PierSeaSide,3840x2160,30.0000,10,1920x1080,210,78.785136,33.255639,38.514150,38.368674,15.112265,12.294648,49.592681,47.469036,29.362080,36.074918,33.093949,38.489667,38.325204,0.108750,4474.94,1.90,30812754675114,7419747001,11920161882124,5238495102,591ae311a3752a74450dfd5540a0a0c3,
AS,aom,av2,0,A1,PierSeaSide,3840x2160,30.0000,10,1920x1080,235,34.578925,30.441064,36.272728,36.694921,11.967849,10.033824,25.713106,24.287498,26.162886,33.679240,30.348136,36.256977,36.670524,0.182132,2635.44,1.38,18694235616684,5275703405,7093838185665,3732835106,deab2cada21a74dd00f305988e7cb54b,
AS,aom,av2,0,A1,PierSeaSide,3840x2160,30.0000,10,1280x720,110,1711.248270,38.189904,42.934793,41.510534,25.234333,18.216132,87.237014,84.575553,36.818014,40.257521,37.675594,42.824562,41.377611,0.001765,10126.75,1.71,84931142260847,10765851010,34535241557240,5951415911,28c49ac83bcebb62a916f708fddcb7ff,
AS,aom,av2,0,A1,PierSeaSide,3840x2160,30.0000,10,1280x720,135,645.920817,37.264555,42.208248,41.058995,22.066001,16.623077,81.251404,78.524418,35.133139,39.526622,36.793682,42.114848,40.946128,0.007420,8495.92,1.60,55888610128627,8295522705,22189805179485,4320007646,59b3b30e923f2e34ed91dc5844359447,
AS,aom,av2,0,A1,PierSeaSide,3840x2160,30.0000,10,1280x720,160,254.403803,35.926287,40.940096,40.200271,19.197286,14.930918,71.340944,68.781313,33.006869,38.392544,35.556302,40.870233,40.117808,0.026001,4913.96,1.06,35237929801614,5578438028,13883676890497,3071596220,05b87a834ba47fb1ddc4b3f45eb2a791,
AS,aom,av2,0,A1,PierSeaSide,3840x2160,30.0000,10,1280x720,185,108.107784,34.078312,39.274078,38.936117,16.452754,13.125132,56.344925,54.077216,30.453840,36.865736,33.840002,39.235927,38.884437,0.080527,3419.25,0.91,23441140712846,5583950422,9017882123902,2453327992,01153df653f803e8664e61e1ad642faf,
AS,aom,av2,0,A1,PierSeaSide,3840x2160,30.0000,10,1280x720,210,49.041986,31.697885,37.324539,37.504244,13.578807,11.099129,35.728605,33.930746,27.560022,34.899567,31.570221,37.301427,37.470908,0.159272,2368.25,0.62,16734529139510,3667442541,6276811654309,1673767456,6adfd279590366d51406ea3296b4e85a,
AS,aom,av2,0,A1,PierSeaSide,3840x2160,30.0000,10,1280x720,235,23.444839,29.057959,35.192173,36.061710,10.467314,8.929609,13.137229,12.034140,24.705455,32.661455,28.982581,35.182106,36.043966,0.257434,1532.39,0.48,11011648356152,2471551347,4089248598235,1331666557,183ed71c74ed7ba288798d52c3806523,
AS,aom,av2,0,A1,PierSeaSide,3840x2160,30.0000,10,960x540,110,1062.785996,35.671021,41.355417,40.739011,23.777467,15.946989,73.683627,71.320789,32.713248,38.804422,35.258390,41.277161,40.630260,0.003656,7812.99,1.25,50002099137875,6945441931,20401789798434,3296201713,072a0d7d6fcec5f1fdbcd5eaa52662e9,
AS,aom,av2,0,A1,PierSeaSide,3840x2160,30.0000,10,960x540,135,419.126300,35.090632,40.784239,40.331519,20.894842,14.906546,67.489740,65.234574,31.844127,38.219660,34.703876,40.715370,40.239119,0.012071,4805.23,0.96,31022064461664,4932524219,12560799986916,2634599292,d56795703f6fef5ec26013318f3016fd,
AS,aom,av2,0,A1,PierSeaSide,3840x2160,30.0000,10,960x540,160,173.748539,34.165925,39.793495,39.548210,18.171530,13.647356,57.700749,55.590937,30.552638,37.301433,33.845149,39.741559,39.479171,0.046998,2351.73,0.56,19746583881591,3668604916,8069795057436,1918591306,c3dbe799a12dd135550749e96ee66b81,
AS,aom,av2,0,A1,PierSeaSide,3840x2160,30.0000,10,960x540,185,77.501498,32.706604,38.323254,38.394147,15.459773,12.130885,42.656191,40.854379,28.699422,35.918852,32.494618,38.291890,38.347536,0.111297,2104.75,0.50,13995854055443,2966167829,5554129710042,1309009076,0918464713321fb566727ba1dbe9f739,
AS,aom,av2,0,A1,PierSeaSide,3840x2160,30.0000,10,960x540,210,37.301123,30.641273,36.620380,37.072257,12.548016,10.290662,24.168928,22.802360,26.354685,34.105849,30.527507,36.601182,37.044479,0.201165,1655.74,0.34,10924534637367,2063154131,4395358596142,920772486,c51a60b96789f0338595575c0d88c80e,
AS,aom,av2,0,A1,PierSeaSide,3840x2160,30.0000,10,960x540,235,18.728945,28.132129,34.558340,35.624435,9.490059,8.211761,3.695535,3.019477,23.772630,31.825011,28.068264,34.548817,35.603671,0.263981,1120.93,0.24,7413100775163,1573920488,3000725301850,691343194,0f16a844e2076dca66d59a32b886ffe8,
AS,aom,av2,0,A1,PierSeaSide,3840x2160,30.0000,10,640x360,110,475.741014,32.442502,39.515512,39.675449,20.128631,12.891986,42.778343,40.996536,28.143051,36.751978,32.214249,39.465972,39.594633,0.007828,2854.05,0.53,18581830999518,3111649681,7457189898863,1402475396,ec4d38463f42836dbf67d86793f2ee0c,
AS,aom,av2,0,A1,PierSeaSide,3840x2160,30.0000,10,640x360,135,199.401015,32.130405,39.070802,39.300356,18.184730,12.342009,37.585252,35.927786,27.783806,36.322398,31.909269,39.024678,39.230517,0.027594,1657.87,0.35,10943807979112,1974240318,4339647951325,913403434,ebc37cec36c8121089bfb0da4c63bd52,
AS,aom,av2,0,A1,PierSeaSide,3840x2160,30.0000,10,640x360,160,91.022118,31.588722,38.264431,38.554455,16.020344,11.574341,29.686603,28.230539,27.179006,35.597640,31.394157,38.224982,38.501646,0.086035,1007.03,0.26,6762075537613,1632262450,2653847025546,692524312,49a53538f1a6a47410caf19c7afee6df,
AS,aom,av2,0,A1,PierSeaSide,3840x2160,30.0000,10,640x360,185,44.955000,30.597719,37.035560,37.489637,13.583116,10.462498,18.210832,17.067791,26.131890,34.460091,30.454676,37.006736,37.455336,0.177359,686.42,0.21,4697743780433,1468572241,1816569016234,540089953,b5c69fc6eccf5bc31c125b09ca4ab332,
AS,aom,av2,0,A1,PierSeaSide,3840x2160,30.0000,10,640x360,210,23.350780,28.961376,35.456295,36.329764,10.798620,8.911319,5.167857,4.406780,24.509221,32.803585,28.877610,35.440775,36.301088,0.262844,498.56,0.16,3414623914507,1040902342,1330349261207,423684571,f8a6dcba6e0b806bb746df923c5cbf81,
AS,aom,av2,0,A1,PierSeaSide,3840x2160,30.0000,10,640x360,235,12.817938,26.861152,33.651467,34.914752,8.057848,7.197459,0.000000,0.000000,22.535944,30.777928,26.813690,33.638520,34.894673,0.348645,355.82,0.11,2465873960822,667144730,956369722593,281285455,e32820fc68ca5fd24d443c050765b6b8,
AS,aom,av2,0,A1,Tango,3840x2160,60.0000,10,3840x2160,110,31806.176593,40.419826,49.611599,47.838613,27.265326,18.229068,97.182401,95.513187,41.311255,42.519295,40.346862,49.598416,47.811607,0.367896,75162.17,26.72,471775102876285,112784383906,195242960486375,73454668712,9a2b0efadd67077dd4e81462ffebe607,
AS,aom,av2,0,A1,Tango,3840x2160,60.0000,10,3840x2160,135,11311.102436,39.753651,48.851187,46.677800,24.708656,17.312806,92.246236,90.471020,39.617814,41.793226,39.740041,48.845508,46.659660,0.473055,51357.65,19.47,327862796513041,89736654876,133660028836774,53844635576,126420f3b34b0b5117c3d31077873e0d,
AS,aom,av2,0,A1,Tango,3840x2160,60.0000,10,3840x2160,160,4437.917775,38.734326,47.614010,44.916199,21.671685,16.093167,82.943358,81.167075,37.326661,40.703363,38.724592,47.604166,44.890308,0.495685,20658.47,14.03,172889761730735,61599598429,70627750815148,50890545433,bb26573da32156a39702a08e2e209c21,
AS,aom,av2,0,A1,Tango,3840x2160,60.0000,10,3840x2160,185,2166.761239,37.080235,45.782620,42.582495,18.186954,14.417689,67.968132,66.229468,34.467599,39.097853,37.056747,45.763040,42.548557,0.563185,16262.77,12.13,106700827523024,48487281527,42739587490667,33559044049,cca210f792656ffa04912b51e2fe8830,
AS,aom,av2,0,A1,Tango,3840x2160,60.0000,10,3840x2160,210,1045.236610,34.713862,43.336111,39.768567,14.607131,12.387289,49.064369,47.453303,31.266588,36.880020,34.671437,43.306477,39.730560,0.673121,8770.37,9.98,70635140943477,41270804872,30407468953260,35772627915,fc4873012a3a329285e57e56d2356eb6,
AS,aom,av2,0,A1,Tango,3840x2160,60.0000,10,3840x2160,235,506.558057,31.869479,40.410374,36.776656,11.248191,10.236609,30.349576,29.040737,28.023080,34.217630,31.813607,40.357122,36.737019,0.805118,5450.85,10.47,43519868523219,40814136633,19121338210593,37701782113,0efa77c42abecdd8a81734325677baae,
AS,aom,av2,0,A1,Tango,3840x2160,60.0000,10,2560x1440,110,15041.421348,40.022579,49.209934,47.167873,25.849856,17.703880,95.089066,93.121287,40.369526,42.100252,40.009684,49.203196,47.149245,0.522518,25021.63,12.01,152312452956363,53881189960,65343334295134,32933489059,c1a9d2ee49bad9b5953be0e85205fc92,
AS,aom,av2,0,A1,Tango,3840x2160,60.0000,10,2560x1440,135,6208.746331,39.282000,48.327356,45.844643,23.250011,16.735144,88.693412,86.595405,38.499709,41.292266,39.275500,48.320923,45.825752,0.547583,20880.53,10.38,133000921830166,44692623337,54451645990895,28628050843,0904254aa028470232e958ffef07e04d,
AS,aom,av2,0,A1,Tango,3840x2160,60.0000,10,2560x1440,160,2893.389687,37.969362,46.906290,43.902806,19.896657,15.287269,76.684496,74.608534,35.914885,39.998464,37.954459,46.894948,43.874937,0.609678,12286.88,7.08,79749794297262,31056697857,32129279721707,19492963895,20f3210f1974006c77a7646d00f820b5,
AS,aom,av2,0,A1,Tango,3840x2160,60.0000,10,2560x1440,185,1404.438024,35.948053,44.882843,41.401582,16.319565,13.406720,59.193789,57.352817,32.863905,38.140352,35.916266,44.859805,41.366130,0.708088,8150.66,4.99,53780520199358,23491352979,21360280031742,13657894271,14118449d6f3bcf639f33e4315df5021,
AS,aom,av2,0,A1,Tango,3840x2160,60.0000,10,2560x1440,210,660.266503,33.310042,42.386631,38.558814,12.831531,11.300421,39.001597,37.599429,29.636681,35.739853,33.260755,42.355159,38.519216,0.799738,5657.13,4.49,37148989686503,19556714056,14910818500940,12240696639,9c2cb7fff77e9660dc1b52112ad36ccf,
AS,aom,av2,0,A1,Tango,3840x2160,60.0000,10,2560x1440,235,308.844386,30.347053,39.386959,35.524100,9.734307,9.238593,19.579776,18.709881,26.452053,32.938345,30.286593,39.344485,35.481598,0.880891,3701.80,4.51,23716401531646,19130166629,9852231811163,12506946124,80e1b6ae2eb2135213a543a54aa69b8b,
AS,aom,av2,0,A1,Tango,3840x2160,60.0000,10,1920x1080,110,9943.060017,39.732393,48.850962,46.532938,24.866801,17.325534,92.877987,90.701597,39.629729,41.764102,39.725850,48.845359,46.515581,0.587276,13083.59,7.82,79883734264649,33505573749,34168572730138,21276684027,c4a1f08c1570fab38b6e17ab146e55d7,
AS,aom,av2,0,A1,Tango,3840x2160,60.0000,10,1920x1080,135,4459.699070,38.840111,47.859775,45.077829,22.044628,16.236879,84.955183,82.651525,37.557851,40.842000,38.832443,47.851638,45.055142,0.651418,11445.31,6.27,76030394072000,28579059087,32142137982978,18402441993,dc4357bb5d7386829c6c8105ea053f40,
AS,aom,av2,0,A1,Tango,3840x2160,60.0000,10,1920x1080,160,2145.581188,37.281748,46.302592,43.028831,18.558661,14.622216,70.757890,68.601331,34.794049,39.385521,37.261745,46.287919,42.998105,0.742863,7888.66,4.57,49922323499054,19292832262,20608398881506,12437731323,1238833db3c95ef6030d1e6ff11a50f7,
AS,aom,av2,0,A1,Tango,3840x2160,60.0000,10,1920x1080,185,1030.758780,35.039269,44.226685,40.507736,15.001881,12.651024,51.893043,50.140895,31.697616,37.385527,35.001912,44.202585,40.473725,0.847336,5433.91,3.35,35336553410629,14128020650,14227017398206,9148981685,19fe8ced2bc279a8798f85c14928b150,
AS,aom,av2,0,A1,Tango,3840x2160,60.0000,10,1920x1080,210,472.501037,32.242640,41.685599,37.686128,11.616549,10.526271,32.119828,30.852177,28.472916,34.889895,32.188945,41.653168,37.647992,0.922908,3753.05,2.67,24860930987147,11501940052,9860826529517,7257042010,60841eda73de982aafddbc44a826c1ae,
AS,aom,av2,0,A1,Tango,3840x2160,60.0000,10,1920x1080,235,217.137939,29.308926,38.707247,34.693052,8.794131,8.602103,13.238323,12.622947,25.418328,32.048961,29.249290,38.665673,34.652338,0.948117,2252.53,2.42,15888366782789,11305733251,6401927413728,7072966884,5902215488dcbf194cc6964979efbfff,
AS,aom,av2,0,A1,Tango,3840x2160,60.0000,10,1280x720,110,5955.976331,39.111632,48.146311,45.305172,23.214621,16.632918,87.440572,85.013848,38.215954,41.113687,39.106475,48.139473,45.286587,0.629983,7751.82,3.52,46875545137723,17267572252,20254336174520,9495158760,9e31ddbb191f0ba9e21c4edbdc874926,
AS,aom,av2,0,A1,Tango,3840x2160,60.0000,10,1280x720,135,2909.840928,37.966469,47.007961,43.747214,20.144188,15.350504,76.934234,74.463787,35.939945,40.019895,37.954161,46.997386,43.722029,0.737086,4804.65,2.71,39219942061105,15248563363,16378376162709,9641369276,162787c89c2cf761c7b2c23aa8c97f23,
AS,aom,av2,0,A1,Tango,3840x2160,60.0000,10,1280x720,160,1404.954430,36.108588,45.277685,41.635942,16.637357,13.579492,60.549408,58.373675,33.091822,38.353884,36.082074,45.259687,41.604914,0.874894,4371.01,2.12,27938664117662,10367655411,11409918264556,5714351831,a8c2a6b029a30e81e9e099cf2b6bc077,
AS,aom,av2,0,A1,Tango,3840x2160,60.0000,10,1280x720,185,663.187889,33.622489,43.098497,39.127559,13.191151,11.547421,40.940038,39.364584,30.009808,36.167292,33.579597,43.069190,39.091084,1.008243,3173.03,1.43,20701645498261,7107277103,8293110664137,3907715771,2094a4e175c7904d88c4e37aa239d054,
AS,aom,av2,0,A1,Tango,3840x2160,60.0000,10,1280x720,210,299.622839,30.731000,40.541422,36.407580,10.086158,9.516001,22.412445,21.409689,26.891909,33.561498,30.674112,40.498477,36.369278,1.084272,2226.84,0.98,14556817490366,5622115383,5821314092600,2736773196,41f4337bcf11084769491ee63a14baa7,
AS,aom,av2,0,A1,Tango,3840x2160,60.0000,10,1280x720,235,133.859986,27.787775,37.700268,33.438095,7.585714,7.760232,4.715090,4.470243,23.934890,30.654838,27.727069,37.663022,33.398910,1.032034,1079.33,1.01,9054468976259,5190688738,3704805144083,3648630493,d771ca4e908da60b135d9f1eb9c490b1,
AS,aom,av2,0,A1,Tango,3840x2160,60.0000,10,960x540,110,4404.989472,38.427512,47.517768,44.214966,21.960635,15.978182,80.313672,77.928108,36.797966,40.493620,38.420662,47.509690,44.195817,0.683722,6276.31,2.26,37713389649750,11231778740,16389053129816,6095635470,a8e35263896e3efd230ec9ec329db548,
AS,aom,av2,0,A1,Tango,3840x2160,60.0000,10,960x540,135,2218.914624,37.172302,46.347131,42.704189,18.845785,14.632606,68.879969,66.420398,34.613498,39.335971,37.156434,46.335412,42.679893,0.821054,4245.87,1.98,25998972207366,9758058865,11079976910947,5356833324,aa856c9f6e370d6766579d49bec93494,
AS,aom,av2,0,A1,Tango,3840x2160,60.0000,10,960x540,160,1055.324983,35.167302,44.560263,40.633636,15.354892,12.810873,51.503174,49.497853,31.839012,37.570062,35.136426,44.540815,40.602017,0.998794,2832.61,1.39,17778771152929,6805327236,7391870040615,3721670127,fcf013d62ed6bc6a16c27ae8650e27b3,
AS,aom,av2,0,A1,Tango,3840x2160,60.0000,10,960x540,185,495.669254,32.625720,42.373486,38.213142,12.053302,10.811631,33.003331,31.696033,28.890410,35.340498,32.580028,42.343072,38.177403,1.140386,2008.81,0.84,12630270635238,4487186638,5246358703776,2259740031,f1e30fd760989cfe0081a2dab9385437,
AS,aom,av2,0,A1,Tango,3840x2160,60.0000,10,960x540,210,221.180665,29.753659,39.953580,35.541849,9.188564,8.903890,15.571924,14.894976,25.905110,32.727796,29.697677,39.914724,35.505914,1.196589,1417.85,0.61,8856643975487,3403774586,3709588456238,1641471709,ce03f39391b0139afc5976d5e01943f1,
AS,aom,av2,0,A1,Tango,3840x2160,60.0000,10,960x540,235,98.973027,26.786792,36.974477,32.601012,6.868761,7.246762,0.664873,0.598671,22.968767,29.719486,26.725279,36.923762,32.549701,1.099800,894.95,0.49,5575712280830,3023905988,2344769243085,1336309182,5921856417e30a3f2f0d064ea60db62d,
AS,aom,av2,0,A1,Tango,3840x2160,60.0000,10,640x360,110,2776.545301,36.800662,46.313427,42.320095,19.614199,14.574725,60.783305,58.711971,33.862361,39.228102,36.791860,46.304115,42.298942,0.739698,3171.28,1.21,18944590398394,5973196681,8293180875288,3250481414,2e730f029fae94393f7e0dfe887f51f7,
AS,aom,av2,0,A1,Tango,3840x2160,60.0000,10,640x360,135,1413.552601,35.525563,45.122774,40.918619,16.651185,13.283841,48.738099,46.782426,32.154035,38.032234,35.506611,45.110747,40.891178,0.910053,2310.48,0.95,14141135963274,4930874861,6036039689008,2578316068,415939df4bdaeab6ad5d997c920bc3d3,
AS,aom,av2,0,A1,Tango,3840x2160,60.0000,10,640x360,160,674.227926,33.515435,43.284502,38.964190,13.410038,11.560136,33.160712,31.660858,29.800366,36.200613,33.481720,43.264518,38.930137,1.120075,1577.76,0.69,9917916911587,3510288813,4118513960696,1872683131,a202127a31099fccfe58938d6f15cfda,
AS,aom,av2,0,A1,Tango,3840x2160,60.0000,10,640x360,185,313.171137,31.013342,41.125159,36.710588,10.436596,9.732074,17.149407,16.412870,27.162852,33.944670,30.966018,41.095510,36.670663,1.321528,1033.96,0.49,6628484773695,2525522693,2700292999624,1301265774,6dda436ebb1d70242a607427a0039680,
AS,aom,av2,0,A1,Tango,3840x2160,60.0000,10,640x360,210,137.906401,28.152752,38.718159,34.179919,7.889428,7.999828,3.091941,2.917584,24.326549,31.224675,28.095585,38.676183,34.142714,1.303116,500.61,0.23,4224976599714,1628534939,1712958586456,821907252,4efbed927d825bb3cffc126293152424,
AS,aom,av2,0,A1,Tango,3840x2160,60.0000,10,640x360,235,62.743410,25.307656,36.001955,31.377986,5.955892,6.560848,0.066653,0.060068,21.561861,28.307378,25.245790,35.958514,31.323395,1.183606,308.44,0.18,2604890053980,1326241049,1058124873196,619764964,d58ec8351b8e86e0db97952e24701133,
AS,aom,av2,0,A1,TimeLapse,3840x2160,60.0000,10,3840x2160,110,30775.521094,43.488357,49.316929,50.938082,31.413976,23.187503,95.004866,93.224129,45.033264,44.519077,43.385222,49.289150,50.860982,0.012907,35747.55,22.61,219683825456844,84217501960,93279577219972,62253762051,1cca47ef438749e1e0bcedd3401c7db1,
AS,aom,av2,0,A1,TimeLapse,3840x2160,60.0000,10,3840x2160,135,11484.755245,41.504879,47.539220,49.063507,27.668693,20.672963,91.868076,89.766628,41.292892,42.811129,41.439551,47.525855,49.022631,0.011037,32233.11,16.30,203875587989512,64029039141,84189602498860,45642860660,9462c45b885b541d4325a1821ed37d40,
AS,aom,av2,0,A1,TimeLapse,3840x2160,60.0000,10,3840x2160,160,4287.584416,39.225689,45.429252,46.856778,23.686147,17.917226,85.818262,83.268992,37.511562,40.741919,39.175424,45.421361,46.833960,0.009571,17415.34,10.38,120686576175764,46029295800,49234520375161,31319393189,2fbc23f9169d97074517e12a73515f66,
AS,aom,av2,0,A1,TimeLapse,3840x2160,60.0000,10,3840x2160,185,1655.953892,36.769660,43.139506,44.555133,19.861056,15.168985,75.834033,72.819077,34.015944,38.417756,36.724140,43.131944,44.530333,0.014747,10871.37,7.69,70571243506401,33568902032,28919349714575,21688216920,073aad63c0090b21da96d1f644a12517,
AS,aom,av2,0,A1,TimeLapse,3840x2160,60.0000,10,3840x2160,210,625.069700,34.130121,40.754318,42.186465,16.096256,12.432075,60.935459,57.835112,30.654645,35.873476,34.080381,40.748356,42.141343,0.020725,6062.56,6.27,39476659524385,25844650250,16364336660515,18041525436,96c6cb5d0283b0cdace0288cc2388d83,
AS,aom,av2,0,A1,TimeLapse,3840x2160,60.0000,10,3840x2160,235,241.833244,31.446771,38.675027,39.762868,12.540263,9.970449,42.675548,39.861951,27.557921,33.356271,31.391766,38.664966,39.656405,0.027979,3772.05,6.60,24421462763706,27144735520,10304285473913,19169085721,9388ec415ec8104922e434b1e2ba8eb5,
AS,aom,av2,0,A1,TimeLapse,3840x2160,60.0000,10,2560x1440,110,16064.227465,41.889370,48.030733,49.685800,29.289755,21.669927,92.804871,90.698157,42.813428,43.233405,41.822480,48.015776,49.636922,0.013687,12724.72,8.30,97912168431872,39790776410,43483996826535,29651417162,62cda4696c067093f4f89345b46f7567,
AS,aom,av2,0,A1,TimeLapse,3840x2160,60.0000,10,2560x1440,135,6317.844617,40.045961,46.290566,47.840445,25.537963,19.144014,88.354768,86.014658,39.164296,41.567065,39.990891,46.282090,47.813543,0.013203,15262.18,6.85,96421948179067,29502316920,39808595242053,18977041462,91738981ae59ee3f37c88c4be47fd9f4,
AS,aom,av2,0,A1,TimeLapse,3840x2160,60.0000,10,2560x1440,160,2438.033351,37.814120,44.228751,45.731288,21.641169,16.419326,80.237462,77.602024,35.591333,39.499591,37.764682,44.222271,45.710836,0.014794,9110.91,4.54,58611823640151,20114368182,23891848053126,12687772530,70bd1faea4efa1cb98a564d93472d802,
AS,aom,av2,0,A1,TimeLapse,3840x2160,60.0000,10,2560x1440,185,941.398294,35.353961,42.027781,43.540746,17.886300,13.695007,67.894767,65.004254,32.226862,37.195048,35.304243,42.020480,43.513789,0.018738,5174.69,3.48,33641701353096,14223806504,13691732192466,9787080599,50d9a80ad82d42830f63bbed4e92448e,
AS,aom,av2,0,A1,TimeLapse,3840x2160,60.0000,10,2560x1440,210,350.724967,32.741964,39.877556,41.413158,14.232172,11.091453,51.292514,48.537409,29.041641,34.751206,32.681889,39.871635,41.368225,0.024757,3000.21,2.60,19939219543024,11061364002,8094775551641,7437886182,d353c20b3676466266b4aea11b029d43,
AS,aom,av2,0,A1,TimeLapse,3840x2160,60.0000,10,2560x1440,235,139.514639,30.091526,37.866798,38.947823,10.812788,8.809591,32.541258,30.510575,26.080128,32.221039,30.033002,37.856870,38.826891,0.034532,1896.33,2.54,12676243247522,11723884894,5142148776537,7419257024,0866348215307c00a2e731eed486e38f,
AS,aom,av2,0,A1,TimeLapse,3840x2160,60.0000,10,1920x1080,110,10283.659725,40.306060,46.911006,48.706067,27.741593,20.299125,89.757313,87.373230,40.922134,42.035912,40.238547,46.901798,48.676810,0.017627,7403.05,5.40,56749044053147,22977553640,25289207656460,19135336583,4a856e39807ef6b8d265fd3b79a5f00d,
AS,aom,av2,0,A1,TimeLapse,3840x2160,60.0000,10,1920x1080,135,4146.645969,38.719931,45.261236,46.955909,24.031616,17.949546,84.254082,81.749629,37.582249,40.487589,38.661722,45.255333,46.935639,0.017928,7179.85,4.02,57350552666591,17281597844,24519468680305,14536521231,c4ce6bd7ff66d0cf7d324bf7c1c00f75,
AS,aom,av2,0,A1,TimeLapse,3840x2160,60.0000,10,1920x1080,160,1621.111196,36.658026,43.314478,44.917791,20.200747,15.321887,74.675748,72.008413,34.206050,38.516354,36.603715,43.309148,44.897386,0.021461,5548.32,2.68,35517845166634,11167103295,14532907600903,7493284483,ef3a6d118f1912290047f2f0c6b398be,
AS,aom,av2,0,A1,TimeLapse,3840x2160,60.0000,10,1920x1080,185,622.967187,34.307420,41.287653,42.903648,16.507880,12.685176,61.082295,58.361217,30.994204,36.323992,34.251090,41.280658,42.872186,0.027311,3167.57,1.88,20711031022930,7933640809,8385146593370,5280732645,b689ae3305b4052cd2973da2dff91fea,
AS,aom,av2,0,A1,TimeLapse,3840x2160,60.0000,10,1920x1080,210,232.323984,31.772584,39.233260,40.784532,12.904545,10.189473,43.610971,41.325600,27.952046,33.934715,31.702892,39.226812,40.723222,0.028787,1986.46,1.56,13447298611003,6413416721,5346373268419,4481998330,def66aea704d77271bf8f85e1833ca0b,
AS,aom,av2,0,A1,TimeLapse,3840x2160,60.0000,10,1920x1080,235,94.487666,29.199650,37.415829,38.461257,9.809698,8.151098,25.403083,23.899662,25.137175,31.483565,29.132888,37.407234,38.339034,0.038962,1159.72,1.33,7740190362558,6210952370,3145315689719,3901036006,0892d9511a04bd6705116a34567f8ca9,
AS,aom,av2,0,A1,TimeLapse,3840x2160,60.0000,10,1280x720,110,5143.152232,37.120326,45.179583,47.237852,25.191840,17.432437,80.054776,77.600501,35.986176,39.779199,37.038309,45.172856,47.222348,0.015168,5802.27,2.24,35753705738256,10497931255,15168681641730,6018630416,6d96919c7bd5f7e06dfd16270bd1cf54,
AS,aom,av2,0,A1,TimeLapse,3840x2160,60.0000,10,1280x720,135,2180.018136,36.128106,43.727239,45.630584,21.793409,15.720728,73.198679,70.742102,34.101231,38.546885,36.059956,43.723075,45.614118,0.018658,4322.94,1.64,27133721143556,7741127121,11310265067490,4501641755,ba074f8cd464b117e6c1c0e19a7c82f8,
AS,aom,av2,0,A1,TimeLapse,3840x2160,60.0000,10,1280x720,160,889.418274,34.602709,42.027120,43.754518,18.151144,13.538581,62.105336,59.675314,31.684902,36.860395,34.537423,42.022888,43.731769,0.023642,2648.61,0.99,16940026581964,5013915711,6948060100200,2723359730,6464fe31f9c8515ff588ff7b1d6c8a69,
AS,aom,av2,0,A1,TimeLapse,3840x2160,60.0000,10,1280x720,185,342.525167,32.577188,40.240986,41.900927,14.528281,11.153451,47.646897,45.488821,28.988168,34.888122,32.509904,40.235973,41.862256,0.025614,1247.52,0.78,10304214242311,3217166899,4316627648198,2849330539,bcfbffaf968cdc9fdbb0500d7cad3de5,
AS,aom,av2,0,A1,TimeLapse,3840x2160,60.0000,10,1280x720,210,129.935295,30.304294,38.474336,39.900204,11.150638,8.988958,31.336038,29.645159,26.348111,32.727151,30.227294,38.468187,39.841560,0.041046,996.34,0.54,6643830754048,2536708968,2682434352854,1525521540,9cfaf50605c90c76e56c845d39c33e04,
AS,aom,av2,0,A1,TimeLapse,3840x2160,60.0000,10,1280x720,235,56.170291,27.919950,36.639360,37.695524,8.379107,7.214198,16.913551,15.900493,23.817596,30.391825,27.842259,36.631338,37.600140,0.071926,625.04,0.47,4304158874949,2696325268,1688358621610,1372480303,a81d94720027ec72b98bfc2adf6c5fac,
AS,aom,av2,0,A1,TimeLapse,3840x2160,60.0000,10,960x540,110,3131.689234,34.651331,43.821499,46.098727,23.674789,14.865574,67.260329,64.741042,31.915671,37.948589,34.555240,43.814980,46.084102,0.017482,4309.03,1.28,26362515973919,6183904302,11260256016511,3429309916,3624d7e0edbab163e37762930e925a02,
AS,aom,av2,0,A1,TimeLapse,3840x2160,60.0000,10,960x540,135,1382.708369,34.039748,42.602341,44.707013,20.410662,13.770191,60.229367,57.761676,30.980210,36.990783,33.956661,42.598737,44.689614,0.023272,2655.45,0.89,16592086478382,4529147003,6949422313233,2407918006,bb2cc5739b8c3dfe483b065101851783,
AS,aom,av2,0,A1,TimeLapse,3840x2160,60.0000,10,960x540,160,580.927995,32.942422,41.100949,42.985380,16.808283,12.107400,49.286944,46.995279,29.463821,35.617390,32.867853,41.097213,42.955872,0.026604,1256.71,0.48,10237535056644,2738476866,4319386931701,1744430276,63bdf2fc7169905f90096e994c8acd99,
AS,aom,av2,0,A1,TimeLapse,3840x2160,60.0000,10,960x540,185,227.978790,31.315356,39.534137,41.278807,13.253290,10.107475,35.587390,33.722969,27.465863,33.859433,31.238358,39.530042,41.240449,0.033964,942.35,0.33,6084782297629,1934206774,2502201195932,908897581,d935fcbe821a54d591fe8ee47f918352,
AS,aom,av2,0,A1,TimeLapse,3840x2160,60.0000,10,960x540,210,92.595405,29.340685,37.781486,39.228574,10.150998,8.282433,22.332134,21.116208,25.275816,31.823766,29.262954,37.775945,39.159379,0.052070,584.44,0.25,3898356989472,1502429225,1573871099635,692018032,532cb757c9302951ef837148992c7672,
AS,aom,av2,0,A1,TimeLapse,3840x2160,60.0000,10,960x540,235,42.751095,27.146930,36.019197,37.378118,7.587222,6.690723,10.672718,9.760121,23.026810,29.691222,27.068545,36.011428,37.279129,0.089933,376.99,0.26,2549438712962,1506781809,1020147331261,730641888,e55b73a3e2225648bff755cbc7f84a74,
AS,aom,av2,0,A1,TimeLapse,3840x2160,60.0000,10,640x360,110,1456.340582,32.048160,42.438784,44.752673,20.218759,12.087580,42.853361,40.710430,28.087987,35.840320,31.949619,42.433326,44.724806,0.018319,1834.84,0.55,11410179674401,2805378445,4797905808039,1480376570,0b05e6bb51f4f31863e74db0db6ae5e3,
AS,aom,av2,0,A1,TimeLapse,3840x2160,60.0000,10,640x360,135,680.303082,31.674308,41.395560,43.522174,17.659605,11.431591,36.744759,34.791664,27.648945,35.125292,31.585502,41.392327,43.491593,0.024211,1127.78,0.33,7643189376103,1875261043,3178771096904,962582809,2d8cf5c2763dc2ff614420d51f3fd259,
AS,aom,av2,0,A1,TimeLapse,3840x2160,60.0000,10,640x360,160,297.424422,30.907113,40.028286,41.957760,14.514380,10.286149,27.737752,26.142125,26.796175,33.976511,30.826467,40.024659,41.917430,0.030456,564.85,0.17,4707889328287,1118086361,1942045978524,563340111,b2c6c58ee863fb42440eef17069863c5,
AS,aom,av2,0,A1,TimeLapse,3840x2160,60.0000,10,640x360,185,123.959733,29.647908,38.563401,40.238966,11.377863,8.758820,18.102933,16.876463,25.466739,32.447698,29.564161,38.556033,40.181869,0.040658,462.71,0.14,3060177708412,831119521,1226155687443,383131310,ebaefd40e8d5c09bafe2be327a943971,
AS,aom,av2,0,A1,TimeLapse,3840x2160,60.0000,10,640x360,210,54.148928,27.960362,36.899271,38.502877,8.639300,7.278113,10.486450,9.674705,23.788868,30.609787,27.878788,36.893204,38.428715,0.081223,206.94,0.08,1816908231381,579861784,726820970327,296528517,9bfc7ceb1991ddb26541a357b9fa6f2b,
AS,aom,av2,0,A1,TimeLapse,3840x2160,60.0000,10,640x360,235,27.565050,25.944898,35.270424,36.588105,6.451315,5.932670,2.675699,2.348881,21.859441,28.552759,25.870762,35.258922,36.484624,0.166003,175.91,0.09,1242597613773,467992565,476839570695,258975671,a6278988ed6c44f1ee7cb1fc3aeb0816,
